{
    "ImoveisPropostas": [
        {
            "id proposta": "572351",
            "id imovel": "60757886",
            "id usuario cadastro": "279369",
            "id usuarios responsaveis": "279369",
            "id cliente": "33143866",
            "referencia": "43245-000-001L",
            "data cadastro": "7/9/2019 6:21:01 PM",
            "data atualizacao": "7/11/2019 1:56:15 PM",
            "data expiracao": "7/16/2019 12:00:00 AM",
            "status": "Cancelada",
            "pretensao": "Locação",
            "finalidade": "Residencial",
            "meses prazo": "12",
            "valor proposta": "1500.00",
            "condicoes": "Locação com fiador."
        },
        {
            "id proposta": "679753",
            "id imovel": "62649323",
            "id usuario cadastro": "308075",
            "id usuarios responsaveis": "295731",
            "id cliente": "38516681",
            "referencia": "43245-000-002V",
            "data cadastro": "3/2/2020 5:32:10 PM",
            "data atualizacao": "3/10/2020 9:45:22 AM",
            "data expiracao": "3/9/2020 12:00:00 AM",
            "status": "Aprovada pelo proprietário",
            "pretensao": "Venda",
            "finalidade": "Residencial",
            "meses prazo": "0",
            "valor proposta": "700000.00",
            "condicoes": "270.000,00 a vista e a diferença na baixa da ipoteca."
        },
        {
            "id proposta": "719590",
            "id imovel": "63932361",
            "id usuario cadastro": "295740",
            "id usuarios responsaveis": "295740",
            "id cliente": "40310046",
            "referencia": "43245-000-003V",
            "data cadastro": "6/23/2020 4:09:20 PM",
            "data atualizacao": "7/1/2020 1:10:44 PM",
            "data expiracao": "7/10/2020 12:00:00 AM",
            "status": "Cancelada",
            "pretensao": "Venda",
            "finalidade": "Residencial",
            "meses prazo": "0",
            "valor proposta": "205000.00",
            "condicoes": "Cliente fez proposta no valor de R$ 205.000,00, sendo R$ 60.000,00 como sinal e o restante via SFH junto ao Bradesco. A proposta engloba o apartamento, móveis projetados, máquina de lavar roupas, coifa, forno elétrico embutido e cooktop."
        },
        {
            "id proposta": "722224",
            "id imovel": "64581619",
            "id usuario cadastro": "295740",
            "id usuarios responsaveis": "295740",
            "id cliente": "39370956",
            "referencia": "43245-000-004V",
            "data cadastro": "6/29/2020 12:26:04 PM",
            "data atualizacao": "6/29/2020 4:51:04 PM",
            "data expiracao": "7/6/2020 12:00:00 AM",
            "status": "Aprovada pelo proprietário",
            "pretensao": "Venda",
            "finalidade": "Residencial",
            "meses prazo": "0",
            "valor proposta": "150000.00",
            "condicoes": ""
        },
        {
            "id proposta": "729632",
            "id imovel": "64672638",
            "id usuario cadastro": "295740",
            "id usuarios responsaveis": "295740",
            "id cliente": "40916806",
            "referencia": "43245-000-005V",
            "data cadastro": "7/10/2020 1:13:49 PM",
            "data atualizacao": "7/29/2020 2:43:15 PM",
            "data expiracao": "7/29/2020 12:00:00 AM",
            "status": "Aprovada pelo proprietário",
            "pretensao": "Venda",
            "finalidade": "Residencial",
            "meses prazo": "0",
            "valor proposta": "175000.00",
            "condicoes": "A simulação gerou um financiamento de R$ 69 mil, a cliente deu de entrada R$ 50 mil e dividiu os outros R$ 19 mil em 25 parcelas diretamente com a construtora. O sinal de R$ 50 mil foi concluído no dia de ontem (09/07). O saldo devedor está sendo financiado junto a Caixa Econômica Federal."
        },
        {
            "id proposta": "731986",
            "id imovel": "63932361",
            "id usuario cadastro": "295740",
            "id usuarios responsaveis": "295740",
            "id cliente": "40957619",
            "referencia": "43245-000-006V",
            "data cadastro": "7/15/2020 10:26:54 AM",
            "data atualizacao": "8/16/2020 8:25:57 AM",
            "data expiracao": "7/22/2020 12:00:00 AM",
            "status": "Aprovada pelo proprietário",
            "pretensao": "Venda",
            "finalidade": "Residencial",
            "meses prazo": "0",
            "valor proposta": "215000.00",
            "condicoes": "Cliente fez proposta nesse valor e compreendendo a compra do imóvel com os seguintes eletros: cooktop, coifa, forno elétrico de embutir, máquina de lavar louças, máquina de lavar roupas e split da suíte."
        },
        {
            "id proposta": "732529",
            "id imovel": "64176722",
            "id usuario cadastro": "295740",
            "id usuarios responsaveis": "295740",
            "id cliente": "40940738",
            "referencia": "43245-000-007V",
            "data cadastro": "7/15/2020 8:34:33 PM",
            "data atualizacao": "7/15/2020 8:34:33 PM",
            "data expiracao": "7/22/2020 12:00:00 AM",
            "status": "Vencida",
            "pretensao": "Venda",
            "finalidade": "Residencial",
            "meses prazo": "0",
            "valor proposta": "320000.00",
            "condicoes": "Cliente fez a proposta no valor acima e estou aguardando o feedback do proprietário."
        },
        {
            "id proposta": "742176",
            "id imovel": "64930813",
            "id usuario cadastro": "341724",
            "id usuarios responsaveis": "341724",
            "id cliente": "41695833",
            "referencia": "43245-000-001L",
            "data cadastro": "2/5/2020 4:34:49 PM",
            "data atualizacao": "2/5/2020 4:34:49 PM",
            "data expiracao": "2/7/2020 12:00:00 AM",
            "status": "Vencida",
            "pretensao": "Locação",
            "finalidade": "Comercial",
            "meses prazo": "12",
            "valor proposta": "1058.00",
            "condicoes": ""
        },
        {
            "id proposta": "742183",
            "id imovel": "64932232",
            "id usuario cadastro": "341724",
            "id usuarios responsaveis": "341724",
            "id cliente": "41696888",
            "referencia": "43245-000-003V",
            "data cadastro": "7/27/2020 2:07:26 PM",
            "data atualizacao": "7/30/2020 10:56:08 AM",
            "data expiracao": "8/3/2020 12:00:00 AM",
            "status": "Cancelada",
            "pretensao": "Venda",
            "finalidade": "Residencial",
            "meses prazo": "0",
            "valor proposta": "100000.00",
            "condicoes": ""
        },
        {
            "id proposta": "742184",
            "id imovel": "64932312",
            "id usuario cadastro": "341724",
            "id usuarios responsaveis": "341724",
            "id cliente": "41696899",
            "referencia": "43245-000-002V",
            "data cadastro": "5/27/2020 9:29:36 AM",
            "data atualizacao": "5/27/2020 9:29:36 AM",
            "data expiracao": "6/5/2020 12:00:00 AM",
            "status": "Vencida",
            "pretensao": "Venda",
            "finalidade": "Residencial",
            "meses prazo": "0",
            "valor proposta": "90000.00",
            "condicoes": "6% sobre o valor negociado.Cliente da corretora Janete, equipe de Aliete, Remax Mega"
        },
        {
            "id proposta": "744847",
            "id imovel": "61884814",
            "id usuario cadastro": "295740",
            "id usuarios responsaveis": "295740",
            "id cliente": "41214121",
            "referencia": "43245-000-008V",
            "data cadastro": "8/5/2020 6:28:54 PM",
            "data atualizacao": "8/5/2020 6:28:54 PM",
            "data expiracao": "8/12/2020 12:00:00 AM",
            "status": "Vencida",
            "pretensao": "Venda",
            "finalidade": "Residencial",
            "meses prazo": "0",
            "valor proposta": "335000.00",
            "condicoes": ""
        },
        {
            "id proposta": "752699",
            "id imovel": "65111032",
            "id usuario cadastro": "295740",
            "id usuarios responsaveis": "295740",
            "id cliente": "41214121",
            "referencia": "43245-000-009V",
            "data cadastro": "8/19/2020 1:24:27 PM",
            "data atualizacao": "8/19/2020 1:24:27 PM",
            "data expiracao": "8/26/2020 12:00:00 AM",
            "status": "Vencida",
            "pretensao": "Venda",
            "finalidade": "Residencial",
            "meses prazo": "0",
            "valor proposta": "315500.00",
            "condicoes": ""
        },
        {
            "id proposta": "763476",
            "id imovel": "64932312",
            "id usuario cadastro": "341724",
            "id usuarios responsaveis": "341724",
            "id cliente": "42774380",
            "referencia": "43245-000-010V",
            "data cadastro": "9/8/2020 11:08:30 AM",
            "data atualizacao": "9/14/2020 1:58:26 PM",
            "data expiracao": "9/20/2020 12:00:00 AM",
            "status": "Cancelada",
            "pretensao": "Venda",
            "finalidade": "Residencial",
            "meses prazo": "0",
            "valor proposta": "90000.00",
            "condicoes": "6% sobre o valor negociado"
        },
        {
            "id proposta": "808631",
            "id imovel": "65730219",
            "id usuario cadastro": "295740",
            "id usuarios responsaveis": "308075",
            "id cliente": "44800191",
            "referencia": "43245-000-011V",
            "data cadastro": "11/19/2020 9:50:39 AM",
            "data atualizacao": "12/11/2020 10:00:17 AM",
            "data expiracao": "12/27/2020 12:00:00 AM",
            "status": "Cancelada",
            "pretensao": "Venda",
            "finalidade": "Residencial",
            "meses prazo": "0",
            "valor proposta": "140000.00",
            "condicoes": "Proposta de R$ 140.000,00 através de carta de crédito. Proposta enviada e cliente vendedor aprovou."
        },
        {
            "id proposta": "815428",
            "id imovel": "65981314",
            "id usuario cadastro": "295740",
            "id usuarios responsaveis": "295740",
            "id cliente": "38584441",
            "referencia": "43245-000-012V",
            "data cadastro": "11/30/2020 6:12:22 PM",
            "data atualizacao": "11/30/2020 6:35:51 PM",
            "data expiracao": "12/7/2020 12:00:00 AM",
            "status": "Aprovada pelo proprietário",
            "pretensao": "Venda",
            "finalidade": "Residencial",
            "meses prazo": "0",
            "valor proposta": "220000.00",
            "condicoes": "Lote vendido em parceria com o corretor externo Cássio Barros. O cliente aceitou a proposta e a negociação está finalizada."
        },
        {
            "id proposta": "816773",
            "id imovel": "65996770",
            "id usuario cadastro": "295740",
            "id usuarios responsaveis": "295740",
            "id cliente": "45100522",
            "referencia": "43245-000-013V",
            "data cadastro": "12/2/2020 3:49:06 PM",
            "data atualizacao": "12/2/2020 3:49:51 PM",
            "data expiracao": "12/9/2020 12:00:00 AM",
            "status": "Aprovada pelo proprietário",
            "pretensao": "Venda",
            "finalidade": "Residencial",
            "meses prazo": "0",
            "valor proposta": "145000.00",
            "condicoes": "Venda em parceria com o corretor Henrique Cabral - CRECI 4609"
        }
    ]
}