{
    "ClientesAtendimentos": [
        {
            "id atendimento": "247974844",
            "id atendimento retorno": "0",
            "id cliente": "36074378",
            "id usuario": "311232",
            "prioridade": "Média",
            "status": "Finalizado",
            "data cadastro": "11/10/2019 6:23:44 PM",
            "data atualizacao": "11/10/2019 6:23:44 PM",
            "data atendimento": "",
            "id usuario cadastro": "311232",
            "comentario": "Cliente cadastrado"
        },
        {
            "id atendimento": "247975518",
            "id atendimento retorno": "0",
            "id cliente": "36074581",
            "id usuario": "311232",
            "prioridade": "Média",
            "status": "Finalizado",
            "data cadastro": "11/10/2019 7:52:09 PM",
            "data atualizacao": "11/10/2019 7:52:09 PM",
            "data atendimento": "",
            "id usuario cadastro": "311232",
            "comentario": "Cliente cadastrado"
        },
        {
            "id atendimento": "247977515",
            "id atendimento retorno": "0",
            "id cliente": "36075094",
            "id usuario": "311232",
            "prioridade": "Média",
            "status": "Finalizado",
            "data cadastro": "11/11/2019 12:11:05 AM",
            "data atualizacao": "11/11/2019 12:11:05 AM",
            "data atendimento": "",
            "id usuario cadastro": "311232",
            "comentario": "Cliente cadastrado"
        },
        {
            "id atendimento": "247977646",
            "id atendimento retorno": "0",
            "id cliente": "36075131",
            "id usuario": "311232",
            "prioridade": "Média",
            "status": "Finalizado",
            "data cadastro": "11/11/2019 12:58:06 AM",
            "data atualizacao": "11/11/2019 12:58:06 AM",
            "data atendimento": "",
            "id usuario cadastro": "311232",
            "comentario": "Cliente cadastrado"
        },
        {
            "id atendimento": "247977662",
            "id atendimento retorno": "0",
            "id cliente": "36075135",
            "id usuario": "311232",
            "prioridade": "Média",
            "status": "Finalizado",
            "data cadastro": "11/11/2019 1:08:17 AM",
            "data atualizacao": "11/11/2019 1:08:17 AM",
            "data atendimento": "",
            "id usuario cadastro": "311232",
            "comentario": "Cliente cadastrado"
        },
        {
            "id atendimento": "247978614",
            "id atendimento retorno": "0",
            "id cliente": "36075147",
            "id usuario": "311232",
            "prioridade": "Média",
            "status": "Finalizado",
            "data cadastro": "11/11/2019 1:22:08 AM",
            "data atualizacao": "11/11/2019 1:22:08 AM",
            "data atendimento": "",
            "id usuario cadastro": "311232",
            "comentario": "Cliente cadastrado"
        },
        {
            "id atendimento": "247979852",
            "id atendimento retorno": "0",
            "id cliente": "36075151",
            "id usuario": "311232",
            "prioridade": "Média",
            "status": "Finalizado",
            "data cadastro": "11/11/2019 1:38:54 AM",
            "data atualizacao": "11/11/2019 1:38:54 AM",
            "data atendimento": "",
            "id usuario cadastro": "311232",
            "comentario": "Cliente cadastrado"
        },
        {
            "id atendimento": "247980504",
            "id atendimento retorno": "0",
            "id cliente": "36075156",
            "id usuario": "311232",
            "prioridade": "Média",
            "status": "Finalizado",
            "data cadastro": "11/11/2019 1:46:30 AM",
            "data atualizacao": "11/11/2019 1:46:30 AM",
            "data atendimento": "",
            "id usuario cadastro": "311232",
            "comentario": "Cliente cadastrado"
        },
        {
            "id atendimento": "247981590",
            "id atendimento retorno": "0",
            "id cliente": "36075166",
            "id usuario": "311232",
            "prioridade": "Média",
            "status": "Finalizado",
            "data cadastro": "11/11/2019 2:00:35 AM",
            "data atualizacao": "11/11/2019 2:00:35 AM",
            "data atendimento": "",
            "id usuario cadastro": "311232",
            "comentario": "Cliente cadastrado"
        },
        {
            "id atendimento": "247983036",
            "id atendimento retorno": "0",
            "id cliente": "36075169",
            "id usuario": "311232",
            "prioridade": "Média",
            "status": "Finalizado",
            "data cadastro": "11/11/2019 2:18:45 AM",
            "data atualizacao": "11/11/2019 2:18:45 AM",
            "data atendimento": "",
            "id usuario cadastro": "311232",
            "comentario": "Cliente cadastrado"
        },
        {
            "id atendimento": "249095053",
            "id atendimento retorno": "0",
            "id cliente": "36301322",
            "id usuario": "311232",
            "prioridade": "Média",
            "status": "Finalizado",
            "data cadastro": "11/22/2019 11:46:17 PM",
            "data atualizacao": "11/22/2019 11:46:17 PM",
            "data atendimento": "",
            "id usuario cadastro": "311232",
            "comentario": "Cliente cadastrado"
        },
        {
            "id atendimento": "249095057",
            "id atendimento retorno": "0",
            "id cliente": "36301324",
            "id usuario": "311232",
            "prioridade": "Média",
            "status": "Finalizado",
            "data cadastro": "11/22/2019 11:47:52 PM",
            "data atualizacao": "11/22/2019 11:47:52 PM",
            "data atendimento": "",
            "id usuario cadastro": "311232",
            "comentario": "Cliente cadastrado"
        },
        {
            "id atendimento": "249095075",
            "id atendimento retorno": "0",
            "id cliente": "36301335",
            "id usuario": "311232",
            "prioridade": "Média",
            "status": "Finalizado",
            "data cadastro": "11/22/2019 11:59:07 PM",
            "data atualizacao": "11/22/2019 11:59:07 PM",
            "data atendimento": "",
            "id usuario cadastro": "311232",
            "comentario": "Cliente cadastrado"
        },
        {
            "id atendimento": "249095179",
            "id atendimento retorno": "0",
            "id cliente": "36301358",
            "id usuario": "311232",
            "prioridade": "Média",
            "status": "Finalizado",
            "data cadastro": "11/23/2019 12:20:25 AM",
            "data atualizacao": "11/23/2019 12:20:25 AM",
            "data atendimento": "",
            "id usuario cadastro": "311232",
            "comentario": "Cliente cadastrado"
        },
        {
            "id atendimento": "249095226",
            "id atendimento retorno": "0",
            "id cliente": "36301373",
            "id usuario": "311232",
            "prioridade": "Média",
            "status": "Finalizado",
            "data cadastro": "11/23/2019 12:38:57 AM",
            "data atualizacao": "11/23/2019 12:38:57 AM",
            "data atendimento": "",
            "id usuario cadastro": "311232",
            "comentario": "Cliente cadastrado"
        },
        {
            "id atendimento": "249095245",
            "id atendimento retorno": "0",
            "id cliente": "36301381",
            "id usuario": "311232",
            "prioridade": "Média",
            "status": "Finalizado",
            "data cadastro": "11/23/2019 12:51:03 AM",
            "data atualizacao": "11/23/2019 12:51:03 AM",
            "data atendimento": "",
            "id usuario cadastro": "311232",
            "comentario": "Cliente cadastrado"
        },
        {
            "id atendimento": "249095254",
            "id atendimento retorno": "0",
            "id cliente": "36301384",
            "id usuario": "311232",
            "prioridade": "Média",
            "status": "Finalizado",
            "data cadastro": "11/23/2019 1:00:40 AM",
            "data atualizacao": "11/23/2019 1:00:40 AM",
            "data atendimento": "",
            "id usuario cadastro": "311232",
            "comentario": "Cliente cadastrado"
        },
        {
            "id atendimento": "249095718",
            "id atendimento retorno": "0",
            "id cliente": "36301408",
            "id usuario": "311232",
            "prioridade": "Média",
            "status": "Finalizado",
            "data cadastro": "11/23/2019 1:15:34 AM",
            "data atualizacao": "11/23/2019 1:15:34 AM",
            "data atendimento": "",
            "id usuario cadastro": "311232",
            "comentario": "Cliente cadastrado"
        },
        {
            "id atendimento": "249096173",
            "id atendimento retorno": "0",
            "id cliente": "36301411",
            "id usuario": "311232",
            "prioridade": "Média",
            "status": "Finalizado",
            "data cadastro": "11/23/2019 1:23:32 AM",
            "data atualizacao": "11/23/2019 1:23:32 AM",
            "data atendimento": "",
            "id usuario cadastro": "311232",
            "comentario": "Cliente cadastrado"
        },
        {
            "id atendimento": "249195984",
            "id atendimento retorno": "0",
            "id cliente": "36310140",
            "id usuario": "311232",
            "prioridade": "Média",
            "status": "Finalizado",
            "data cadastro": "11/24/2019 11:22:47 PM",
            "data atualizacao": "11/24/2019 11:22:47 PM",
            "data atendimento": "",
            "id usuario cadastro": "311232",
            "comentario": "Cliente cadastrado"
        },
        {
            "id atendimento": "249197262",
            "id atendimento retorno": "0",
            "id cliente": "36310200",
            "id usuario": "311232",
            "prioridade": "Média",
            "status": "Finalizado",
            "data cadastro": "11/25/2019 12:13:12 AM",
            "data atualizacao": "11/25/2019 12:13:12 AM",
            "data atendimento": "",
            "id usuario cadastro": "311232",
            "comentario": "Cliente cadastrado"
        },
        {
            "id atendimento": "249982644",
            "id atendimento retorno": "0",
            "id cliente": "36448215",
            "id usuario": "311232",
            "prioridade": "Média",
            "status": "Finalizado",
            "data cadastro": "11/28/2019 8:51:18 PM",
            "data atualizacao": "11/28/2019 8:51:18 PM",
            "data atendimento": "",
            "id usuario cadastro": "311232",
            "comentario": "Cliente cadastrado"
        },
        {
            "id atendimento": "249993847",
            "id atendimento retorno": "0",
            "id cliente": "36449991",
            "id usuario": "311232",
            "prioridade": "Média",
            "status": "Finalizado",
            "data cadastro": "11/28/2019 10:00:31 PM",
            "data atualizacao": "11/28/2019 10:00:31 PM",
            "data atendimento": "",
            "id usuario cadastro": "311232",
            "comentario": "Cliente cadastrado"
        },
        {
            "id atendimento": "249997272",
            "id atendimento retorno": "0",
            "id cliente": "36451112",
            "id usuario": "311232",
            "prioridade": "Média",
            "status": "Finalizado",
            "data cadastro": "11/28/2019 10:19:02 PM",
            "data atualizacao": "11/28/2019 10:19:02 PM",
            "data atendimento": "",
            "id usuario cadastro": "311232",
            "comentario": "Cliente cadastrado"
        },
        {
            "id atendimento": "250781478",
            "id atendimento retorno": "0",
            "id cliente": "36569860",
            "id usuario": "311232",
            "prioridade": "Média",
            "status": "Finalizado",
            "data cadastro": "12/4/2019 11:34:06 PM",
            "data atualizacao": "12/4/2019 11:34:06 PM",
            "data atendimento": "",
            "id usuario cadastro": "311232",
            "comentario": "Cliente cadastrado"
        },
        {
            "id atendimento": "250961721",
            "id atendimento retorno": "0",
            "id cliente": "36604885",
            "id usuario": "311232",
            "prioridade": "Média",
            "status": "Finalizado",
            "data cadastro": "12/6/2019 2:35:18 PM",
            "data atualizacao": "12/6/2019 2:35:18 PM",
            "data atendimento": "",
            "id usuario cadastro": "311232",
            "comentario": "Cliente cadastrado"
        },
        {
            "id atendimento": "250966073",
            "id atendimento retorno": "0",
            "id cliente": "36605387",
            "id usuario": "311232",
            "prioridade": "Média",
            "status": "Finalizado",
            "data cadastro": "12/6/2019 2:54:43 PM",
            "data atualizacao": "12/6/2019 2:54:43 PM",
            "data atendimento": "",
            "id usuario cadastro": "311232",
            "comentario": "Cliente cadastrado"
        },
        {
            "id atendimento": "251538168",
            "id atendimento retorno": "0",
            "id cliente": "36708892",
            "id usuario": "311232",
            "prioridade": "Média",
            "status": "Finalizado",
            "data cadastro": "12/12/2019 3:45:50 PM",
            "data atualizacao": "12/12/2019 3:45:50 PM",
            "data atendimento": "",
            "id usuario cadastro": "311232",
            "comentario": "Cliente cadastrado"
        },
        {
            "id atendimento": "251554804",
            "id atendimento retorno": "0",
            "id cliente": "36716177",
            "id usuario": "311232",
            "prioridade": "Média",
            "status": "Finalizado",
            "data cadastro": "12/12/2019 8:48:34 PM",
            "data atualizacao": "12/12/2019 8:48:34 PM",
            "data atendimento": "",
            "id usuario cadastro": "311232",
            "comentario": "Cliente cadastrado"
        },
        {
            "id atendimento": "251685442",
            "id atendimento retorno": "0",
            "id cliente": "36731722",
            "id usuario": "311232",
            "prioridade": "Média",
            "status": "Finalizado",
            "data cadastro": "12/13/2019 8:09:35 PM",
            "data atualizacao": "12/13/2019 8:09:35 PM",
            "data atendimento": "",
            "id usuario cadastro": "311232",
            "comentario": "Cliente cadastrado"
        },
        {
            "id atendimento": "251939266",
            "id atendimento retorno": "0",
            "id cliente": "36751020",
            "id usuario": "311232",
            "prioridade": "Média",
            "status": "Finalizado",
            "data cadastro": "12/16/2019 12:17:21 PM",
            "data atualizacao": "12/16/2019 12:17:21 PM",
            "data atendimento": "",
            "id usuario cadastro": "311232",
            "comentario": "Cliente cadastrado"
        },
        {
            "id atendimento": "251974094",
            "id atendimento retorno": "0",
            "id cliente": "36758880",
            "id usuario": "311232",
            "prioridade": "Média",
            "status": "Finalizado",
            "data cadastro": "12/16/2019 4:15:05 PM",
            "data atualizacao": "12/16/2019 4:15:05 PM",
            "data atendimento": "",
            "id usuario cadastro": "311232",
            "comentario": "Cliente cadastrado"
        },
        {
            "id atendimento": "252060463",
            "id atendimento retorno": "0",
            "id cliente": "36770978",
            "id usuario": "311232",
            "prioridade": "Média",
            "status": "Finalizado",
            "data cadastro": "12/17/2019 11:50:37 AM",
            "data atualizacao": "12/17/2019 11:50:37 AM",
            "data atendimento": "",
            "id usuario cadastro": "311232",
            "comentario": "Cliente cadastrado"
        },
        {
            "id atendimento": "252358222",
            "id atendimento retorno": "0",
            "id cliente": "36852469",
            "id usuario": "311232",
            "prioridade": "Média",
            "status": "Finalizado",
            "data cadastro": "12/19/2019 4:36:54 PM",
            "data atualizacao": "12/19/2019 4:36:54 PM",
            "data atendimento": "",
            "id usuario cadastro": "311232",
            "comentario": "Cliente cadastrado"
        },
        {
            "id atendimento": "252623506",
            "id atendimento retorno": "0",
            "id cliente": "36875600",
            "id usuario": "311232",
            "prioridade": "Média",
            "status": "Finalizado",
            "data cadastro": "12/23/2019 2:03:09 AM",
            "data atualizacao": "12/23/2019 2:03:09 AM",
            "data atendimento": "",
            "id usuario cadastro": "311232",
            "comentario": "Cliente cadastrado"
        },
        {
            "id atendimento": "252856996",
            "id atendimento retorno": "0",
            "id cliente": "36898290",
            "id usuario": "311232",
            "prioridade": "Média",
            "status": "Finalizado",
            "data cadastro": "12/26/2019 3:46:25 PM",
            "data atualizacao": "12/26/2019 3:46:25 PM",
            "data atendimento": "",
            "id usuario cadastro": "311232",
            "comentario": "Cliente cadastrado"
        },
        {
            "id atendimento": "253161075",
            "id atendimento retorno": "0",
            "id cliente": "36933832",
            "id usuario": "311232",
            "prioridade": "Média",
            "status": "Finalizado",
            "data cadastro": "12/29/2019 7:12:25 PM",
            "data atualizacao": "12/29/2019 7:12:25 PM",
            "data atendimento": "",
            "id usuario cadastro": "311232",
            "comentario": "Cliente cadastrado"
        },
        {
            "id atendimento": "253294694",
            "id atendimento retorno": "0",
            "id cliente": "36945285",
            "id usuario": "311232",
            "prioridade": "Média",
            "status": "Finalizado",
            "data cadastro": "12/31/2019 5:16:55 PM",
            "data atualizacao": "12/31/2019 5:16:55 PM",
            "data atendimento": "",
            "id usuario cadastro": "311232",
            "comentario": "Cliente cadastrado"
        },
        {
            "id atendimento": "253781666",
            "id atendimento retorno": "0",
            "id cliente": "37007827",
            "id usuario": "311232",
            "prioridade": "Média",
            "status": "Finalizado",
            "data cadastro": "1/5/2020 9:18:38 PM",
            "data atualizacao": "1/5/2020 9:18:38 PM",
            "data atendimento": "",
            "id usuario cadastro": "311232",
            "comentario": "Cliente cadastrado"
        },
        {
            "id atendimento": "254750015",
            "id atendimento retorno": "0",
            "id cliente": "37188188",
            "id usuario": "311232",
            "prioridade": "Média",
            "status": "Finalizado",
            "data cadastro": "1/13/2020 1:24:01 AM",
            "data atualizacao": "1/13/2020 1:24:01 AM",
            "data atendimento": "",
            "id usuario cadastro": "311232",
            "comentario": "Cliente cadastrado"
        },
        {
            "id atendimento": "254750754",
            "id atendimento retorno": "0",
            "id cliente": "37188200",
            "id usuario": "311232",
            "prioridade": "Média",
            "status": "Finalizado",
            "data cadastro": "1/13/2020 1:33:45 AM",
            "data atualizacao": "1/13/2020 1:33:45 AM",
            "data atendimento": "",
            "id usuario cadastro": "311232",
            "comentario": "Cliente cadastrado"
        },
        {
            "id atendimento": "258327373",
            "id atendimento retorno": "0",
            "id cliente": "38029521",
            "id usuario": "311232",
            "prioridade": "Média",
            "status": "Finalizado",
            "data cadastro": "2/7/2020 2:04:56 AM",
            "data atualizacao": "2/7/2020 2:04:56 AM",
            "data atendimento": "",
            "id usuario cadastro": "311232",
            "comentario": "Cliente cadastrado"
        },
        {
            "id atendimento": "258330003",
            "id atendimento retorno": "0",
            "id cliente": "38029524",
            "id usuario": "311232",
            "prioridade": "Média",
            "status": "Finalizado",
            "data cadastro": "2/7/2020 2:15:49 AM",
            "data atualizacao": "2/7/2020 2:15:49 AM",
            "data atendimento": "",
            "id usuario cadastro": "311232",
            "comentario": "Cliente cadastrado"
        },
        {
            "id atendimento": "258587286",
            "id atendimento retorno": "0",
            "id cliente": "38060962",
            "id usuario": "311232",
            "prioridade": "Média",
            "status": "Finalizado",
            "data cadastro": "2/9/2020 1:47:06 PM",
            "data atualizacao": "2/9/2020 1:47:06 PM",
            "data atendimento": "",
            "id usuario cadastro": "311232",
            "comentario": "Cliente cadastrado"
        },
        {
            "id atendimento": "258590106",
            "id atendimento retorno": "0",
            "id cliente": "38061489",
            "id usuario": "311232",
            "prioridade": "Média",
            "status": "Finalizado",
            "data cadastro": "2/9/2020 4:26:21 PM",
            "data atualizacao": "2/9/2020 4:26:21 PM",
            "data atendimento": "",
            "id usuario cadastro": "311232",
            "comentario": "Cliente cadastrado"
        },
        {
            "id atendimento": "258591116",
            "id atendimento retorno": "0",
            "id cliente": "38061746",
            "id usuario": "311232",
            "prioridade": "Média",
            "status": "Finalizado",
            "data cadastro": "2/9/2020 5:46:55 PM",
            "data atualizacao": "2/9/2020 5:46:55 PM",
            "data atendimento": "",
            "id usuario cadastro": "311232",
            "comentario": "Cliente cadastrado"
        },
        {
            "id atendimento": "258592862",
            "id atendimento retorno": "0",
            "id cliente": "38062090",
            "id usuario": "311232",
            "prioridade": "Média",
            "status": "Finalizado",
            "data cadastro": "2/9/2020 7:31:17 PM",
            "data atualizacao": "2/9/2020 7:31:17 PM",
            "data atendimento": "",
            "id usuario cadastro": "311232",
            "comentario": "Cliente cadastrado"
        },
        {
            "id atendimento": "259462818",
            "id atendimento retorno": "0",
            "id cliente": "38199566",
            "id usuario": "311232",
            "prioridade": "Média",
            "status": "Finalizado",
            "data cadastro": "2/15/2020 9:57:44 PM",
            "data atualizacao": "2/15/2020 9:57:44 PM",
            "data atendimento": "",
            "id usuario cadastro": "311232",
            "comentario": "Cliente cadastrado"
        },
        {
            "id atendimento": "259754570",
            "id atendimento retorno": "0",
            "id cliente": "38242175",
            "id usuario": "311232",
            "prioridade": "Média",
            "status": "Finalizado",
            "data cadastro": "2/18/2020 10:36:41 AM",
            "data atualizacao": "2/18/2020 10:36:41 AM",
            "data atendimento": "",
            "id usuario cadastro": "311232",
            "comentario": "Cliente cadastrado"
        },
        {
            "id atendimento": "260017128",
            "id atendimento retorno": "0",
            "id cliente": "38288913",
            "id usuario": "311232",
            "prioridade": "Média",
            "status": "Finalizado",
            "data cadastro": "2/19/2020 12:41:26 AM",
            "data atualizacao": "2/19/2020 12:41:26 AM",
            "data atendimento": "",
            "id usuario cadastro": "311232",
            "comentario": "Cliente cadastrado"
        },
        {
            "id atendimento": "260463011",
            "id atendimento retorno": "0",
            "id cliente": "38348244",
            "id usuario": "311232",
            "prioridade": "Média",
            "status": "Finalizado",
            "data cadastro": "2/20/2020 8:55:52 PM",
            "data atualizacao": "2/20/2020 8:55:52 PM",
            "data atendimento": "",
            "id usuario cadastro": "311232",
            "comentario": "Cliente cadastrado"
        },
        {
            "id atendimento": "262176203",
            "id atendimento retorno": "0",
            "id cliente": "38604374",
            "id usuario": "311232",
            "prioridade": "Média",
            "status": "Finalizado",
            "data cadastro": "3/6/2020 12:54:53 AM",
            "data atualizacao": "3/6/2020 12:54:53 AM",
            "data atendimento": "",
            "id usuario cadastro": "311232",
            "comentario": "Cliente cadastrado"
        },
        {
            "id atendimento": "262355603",
            "id atendimento retorno": "0",
            "id cliente": "38663405",
            "id usuario": "311232",
            "prioridade": "Média",
            "status": "Finalizado",
            "data cadastro": "3/7/2020 9:49:09 AM",
            "data atualizacao": "3/7/2020 9:49:09 AM",
            "data atendimento": "",
            "id usuario cadastro": "311232",
            "comentario": "Cliente cadastrado"
        },
        {
            "id atendimento": "262444483",
            "id atendimento retorno": "0",
            "id cliente": "38672839",
            "id usuario": "311232",
            "prioridade": "Média",
            "status": "Finalizado",
            "data cadastro": "3/8/2020 9:44:45 PM",
            "data atualizacao": "3/8/2020 9:44:45 PM",
            "data atendimento": "",
            "id usuario cadastro": "311232",
            "comentario": "Cliente cadastrado"
        },
        {
            "id atendimento": "263682343",
            "id atendimento retorno": "0",
            "id cliente": "38837557",
            "id usuario": "311232",
            "prioridade": "Média",
            "status": "Finalizado",
            "data cadastro": "3/17/2020 2:05:19 AM",
            "data atualizacao": "3/17/2020 2:05:19 AM",
            "data atendimento": "",
            "id usuario cadastro": "311232",
            "comentario": "Cliente cadastrado"
        },
        {
            "id atendimento": "264312131",
            "id atendimento retorno": "0",
            "id cliente": "38907340",
            "id usuario": "311232",
            "prioridade": "Média",
            "status": "Finalizado",
            "data cadastro": "3/22/2020 11:41:44 PM",
            "data atualizacao": "3/22/2020 11:41:44 PM",
            "data atendimento": "",
            "id usuario cadastro": "311232",
            "comentario": "Cliente cadastrado"
        },
        {
            "id atendimento": "265222743",
            "id atendimento retorno": "0",
            "id cliente": "39033418",
            "id usuario": "311232",
            "prioridade": "Média",
            "status": "Finalizado",
            "data cadastro": "3/31/2020 1:58:26 PM",
            "data atualizacao": "3/31/2020 1:58:26 PM",
            "data atendimento": "",
            "id usuario cadastro": "311232",
            "comentario": "Cliente cadastrado"
        },
        {
            "id atendimento": "265968096",
            "id atendimento retorno": "0",
            "id cliente": "39104637",
            "id usuario": "311232",
            "prioridade": "Média",
            "status": "Finalizado",
            "data cadastro": "4/6/2020 4:11:45 PM",
            "data atualizacao": "4/6/2020 4:11:45 PM",
            "data atendimento": "",
            "id usuario cadastro": "311232",
            "comentario": "Cliente cadastrado"
        },
        {
            "id atendimento": "266209297",
            "id atendimento retorno": "0",
            "id cliente": "39141495",
            "id usuario": "311232",
            "prioridade": "Média",
            "status": "Finalizado",
            "data cadastro": "4/8/2020 7:50:41 PM",
            "data atualizacao": "4/8/2020 7:50:41 PM",
            "data atendimento": "",
            "id usuario cadastro": "311232",
            "comentario": "Cliente cadastrado"
        },
        {
            "id atendimento": "266209617",
            "id atendimento retorno": "0",
            "id cliente": "39141554",
            "id usuario": "311232",
            "prioridade": "Média",
            "status": "Finalizado",
            "data cadastro": "4/8/2020 8:11:53 PM",
            "data atualizacao": "4/8/2020 8:11:53 PM",
            "data atendimento": "",
            "id usuario cadastro": "311232",
            "comentario": "Cliente cadastrado"
        },
        {
            "id atendimento": "266310961",
            "id atendimento retorno": "0",
            "id cliente": "39152947",
            "id usuario": "311232",
            "prioridade": "Média",
            "status": "Finalizado",
            "data cadastro": "4/9/2020 11:52:00 PM",
            "data atualizacao": "4/9/2020 11:52:00 PM",
            "data atendimento": "",
            "id usuario cadastro": "311232",
            "comentario": "Cliente cadastrado"
        },
        {
            "id atendimento": "266960297",
            "id atendimento retorno": "0",
            "id cliente": "39228746",
            "id usuario": "311232",
            "prioridade": "Média",
            "status": "Finalizado",
            "data cadastro": "4/16/2020 8:51:51 PM",
            "data atualizacao": "4/16/2020 8:51:51 PM",
            "data atendimento": "",
            "id usuario cadastro": "311232",
            "comentario": "Cliente cadastrado"
        },
        {
            "id atendimento": "267727624",
            "id atendimento retorno": "0",
            "id cliente": "39324057",
            "id usuario": "311232",
            "prioridade": "Média",
            "status": "Finalizado",
            "data cadastro": "4/24/2020 1:55:38 PM",
            "data atualizacao": "4/24/2020 1:55:38 PM",
            "data atendimento": "",
            "id usuario cadastro": "311232",
            "comentario": "Cliente cadastrado"
        },
        {
            "id atendimento": "268471786",
            "id atendimento retorno": "0",
            "id cliente": "39427186",
            "id usuario": "311232",
            "prioridade": "Média",
            "status": "Finalizado",
            "data cadastro": "5/1/2020 10:32:50 PM",
            "data atualizacao": "5/1/2020 10:32:50 PM",
            "data atendimento": "",
            "id usuario cadastro": "311232",
            "comentario": "Cliente cadastrado"
        },
        {
            "id atendimento": "268472052",
            "id atendimento retorno": "0",
            "id cliente": "39427244",
            "id usuario": "311232",
            "prioridade": "Média",
            "status": "Finalizado",
            "data cadastro": "5/1/2020 10:56:36 PM",
            "data atualizacao": "5/1/2020 10:56:36 PM",
            "data atendimento": "",
            "id usuario cadastro": "311232",
            "comentario": "Cliente cadastrado"
        },
        {
            "id atendimento": "269016914",
            "id atendimento retorno": "0",
            "id cliente": "39514161",
            "id usuario": "311232",
            "prioridade": "Média",
            "status": "Finalizado",
            "data cadastro": "5/7/2020 1:50:00 PM",
            "data atualizacao": "5/7/2020 1:50:00 PM",
            "data atendimento": "",
            "id usuario cadastro": "311232",
            "comentario": "Cliente cadastrado"
        },
        {
            "id atendimento": "269036705",
            "id atendimento retorno": "0",
            "id cliente": "39517601",
            "id usuario": "311232",
            "prioridade": "Média",
            "status": "Finalizado",
            "data cadastro": "5/7/2020 3:56:41 PM",
            "data atualizacao": "5/7/2020 3:56:41 PM",
            "data atendimento": "",
            "id usuario cadastro": "311232",
            "comentario": "Cliente cadastrado"
        },
        {
            "id atendimento": "269051324",
            "id atendimento retorno": "0",
            "id cliente": "39520642",
            "id usuario": "311232",
            "prioridade": "Média",
            "status": "Finalizado",
            "data cadastro": "5/7/2020 8:00:59 PM",
            "data atualizacao": "5/7/2020 8:00:59 PM",
            "data atendimento": "",
            "id usuario cadastro": "311232",
            "comentario": "Cliente cadastrado"
        },
        {
            "id atendimento": "269185620",
            "id atendimento retorno": "0",
            "id cliente": "39537864",
            "id usuario": "311232",
            "prioridade": "Média",
            "status": "Finalizado",
            "data cadastro": "5/9/2020 12:36:36 PM",
            "data atualizacao": "5/9/2020 12:36:36 PM",
            "data atendimento": "",
            "id usuario cadastro": "311232",
            "comentario": "Cliente cadastrado"
        },
        {
            "id atendimento": "269644211",
            "id atendimento retorno": "0",
            "id cliente": "39599249",
            "id usuario": "311232",
            "prioridade": "Média",
            "status": "Finalizado",
            "data cadastro": "5/13/2020 5:01:58 PM",
            "data atualizacao": "5/13/2020 5:01:58 PM",
            "data atendimento": "",
            "id usuario cadastro": "311232",
            "comentario": "Cliente cadastrado"
        },
        {
            "id atendimento": "269646969",
            "id atendimento retorno": "0",
            "id cliente": "39599985",
            "id usuario": "311232",
            "prioridade": "Média",
            "status": "Finalizado",
            "data cadastro": "5/13/2020 5:40:42 PM",
            "data atualizacao": "5/13/2020 5:40:42 PM",
            "data atendimento": "",
            "id usuario cadastro": "311232",
            "comentario": "Cliente cadastrado"
        },
        {
            "id atendimento": "269743657",
            "id atendimento retorno": "0",
            "id cliente": "39618302",
            "id usuario": "311232",
            "prioridade": "Média",
            "status": "Finalizado",
            "data cadastro": "5/14/2020 8:31:49 PM",
            "data atualizacao": "5/14/2020 8:31:49 PM",
            "data atendimento": "",
            "id usuario cadastro": "311232",
            "comentario": "Cliente cadastrado"
        },
        {
            "id atendimento": "269837939",
            "id atendimento retorno": "0",
            "id cliente": "39631407",
            "id usuario": "311232",
            "prioridade": "Média",
            "status": "Finalizado",
            "data cadastro": "5/15/2020 4:46:32 PM",
            "data atualizacao": "5/15/2020 4:46:32 PM",
            "data atendimento": "",
            "id usuario cadastro": "311232",
            "comentario": "Cliente cadastrado"
        },
        {
            "id atendimento": "270081377",
            "id atendimento retorno": "0",
            "id cliente": "39670470",
            "id usuario": "311232",
            "prioridade": "Média",
            "status": "Finalizado",
            "data cadastro": "5/18/2020 8:34:24 PM",
            "data atualizacao": "5/18/2020 8:34:24 PM",
            "data atendimento": "",
            "id usuario cadastro": "311232",
            "comentario": "Cliente cadastrado"
        },
        {
            "id atendimento": "270182014",
            "id atendimento retorno": "0",
            "id cliente": "39680444",
            "id usuario": "311232",
            "prioridade": "Média",
            "status": "Finalizado",
            "data cadastro": "5/19/2020 1:00:26 PM",
            "data atualizacao": "5/19/2020 1:00:26 PM",
            "data atendimento": "",
            "id usuario cadastro": "311232",
            "comentario": "Cliente cadastrado"
        },
        {
            "id atendimento": "270575391",
            "id atendimento retorno": "0",
            "id cliente": "39743026",
            "id usuario": "311232",
            "prioridade": "Média",
            "status": "Finalizado",
            "data cadastro": "5/22/2020 10:07:37 PM",
            "data atualizacao": "5/22/2020 10:07:37 PM",
            "data atendimento": "",
            "id usuario cadastro": "311232",
            "comentario": "Cliente cadastrado"
        },
        {
            "id atendimento": "270611232",
            "id atendimento retorno": "0",
            "id cliente": "39748131",
            "id usuario": "311232",
            "prioridade": "Média",
            "status": "Finalizado",
            "data cadastro": "5/23/2020 1:09:55 PM",
            "data atualizacao": "5/23/2020 1:09:55 PM",
            "data atendimento": "",
            "id usuario cadastro": "311232",
            "comentario": "Cliente cadastrado"
        },
        {
            "id atendimento": "270615295",
            "id atendimento retorno": "0",
            "id cliente": "39749221",
            "id usuario": "311232",
            "prioridade": "Média",
            "status": "Finalizado",
            "data cadastro": "5/23/2020 3:15:17 PM",
            "data atualizacao": "5/23/2020 3:15:17 PM",
            "data atendimento": "",
            "id usuario cadastro": "311232",
            "comentario": "Cliente cadastrado"
        },
        {
            "id atendimento": "270616912",
            "id atendimento retorno": "0",
            "id cliente": "39749624",
            "id usuario": "311232",
            "prioridade": "Média",
            "status": "Finalizado",
            "data cadastro": "5/23/2020 4:00:49 PM",
            "data atualizacao": "5/23/2020 4:00:49 PM",
            "data atendimento": "",
            "id usuario cadastro": "311232",
            "comentario": "Cliente cadastrado"
        },
        {
            "id atendimento": "270742161",
            "id atendimento retorno": "0",
            "id cliente": "39771757",
            "id usuario": "311232",
            "prioridade": "Média",
            "status": "Finalizado",
            "data cadastro": "5/25/2020 3:25:47 PM",
            "data atualizacao": "5/25/2020 3:25:47 PM",
            "data atendimento": "",
            "id usuario cadastro": "311232",
            "comentario": "Cliente cadastrado"
        },
        {
            "id atendimento": "270745864",
            "id atendimento retorno": "0",
            "id cliente": "39772399",
            "id usuario": "311232",
            "prioridade": "Média",
            "status": "Finalizado",
            "data cadastro": "5/25/2020 3:50:54 PM",
            "data atualizacao": "5/25/2020 3:50:54 PM",
            "data atendimento": "",
            "id usuario cadastro": "311232",
            "comentario": "Cliente cadastrado"
        },
        {
            "id atendimento": "270791984",
            "id atendimento retorno": "0",
            "id cliente": "39778330",
            "id usuario": "311232",
            "prioridade": "Média",
            "status": "Finalizado",
            "data cadastro": "5/26/2020 1:28:30 AM",
            "data atualizacao": "5/26/2020 1:28:30 AM",
            "data atendimento": "",
            "id usuario cadastro": "311232",
            "comentario": "Cliente cadastrado"
        },
        {
            "id atendimento": "270989111",
            "id atendimento retorno": "0",
            "id cliente": "39820851",
            "id usuario": "311232",
            "prioridade": "Média",
            "status": "Finalizado",
            "data cadastro": "5/27/2020 12:37:57 PM",
            "data atualizacao": "5/27/2020 12:37:57 PM",
            "data atendimento": "",
            "id usuario cadastro": "311232",
            "comentario": "Cliente cadastrado"
        },
        {
            "id atendimento": "271302466",
            "id atendimento retorno": "0",
            "id cliente": "39893930",
            "id usuario": "311232",
            "prioridade": "Média",
            "status": "Finalizado",
            "data cadastro": "5/30/2020 5:03:38 PM",
            "data atualizacao": "5/30/2020 5:03:38 PM",
            "data atendimento": "",
            "id usuario cadastro": "311232",
            "comentario": "Cliente cadastrado"
        },
        {
            "id atendimento": "271723506",
            "id atendimento retorno": "0",
            "id cliente": "39994417",
            "id usuario": "311232",
            "prioridade": "Média",
            "status": "Finalizado",
            "data cadastro": "6/3/2020 5:33:22 PM",
            "data atualizacao": "6/3/2020 5:33:22 PM",
            "data atendimento": "",
            "id usuario cadastro": "311232",
            "comentario": "Cliente cadastrado"
        },
        {
            "id atendimento": "272001848",
            "id atendimento retorno": "0",
            "id cliente": "40051289",
            "id usuario": "311232",
            "prioridade": "Média",
            "status": "Finalizado",
            "data cadastro": "6/5/2020 9:57:11 PM",
            "data atualizacao": "6/5/2020 9:57:11 PM",
            "data atendimento": "",
            "id usuario cadastro": "311232",
            "comentario": "Cliente cadastrado"
        },
        {
            "id atendimento": "272115385",
            "id atendimento retorno": "0",
            "id cliente": "40062858",
            "id usuario": "311232",
            "prioridade": "Média",
            "status": "Finalizado",
            "data cadastro": "6/7/2020 2:49:06 PM",
            "data atualizacao": "6/7/2020 2:49:06 PM",
            "data atendimento": "",
            "id usuario cadastro": "311232",
            "comentario": "Cliente cadastrado"
        },
        {
            "id atendimento": "272118885",
            "id atendimento retorno": "0",
            "id cliente": "40063105",
            "id usuario": "311232",
            "prioridade": "Média",
            "status": "Finalizado",
            "data cadastro": "6/7/2020 3:35:44 PM",
            "data atualizacao": "6/7/2020 3:35:44 PM",
            "data atendimento": "",
            "id usuario cadastro": "311232",
            "comentario": "Cliente cadastrado"
        },
        {
            "id atendimento": "272120164",
            "id atendimento retorno": "0",
            "id cliente": "40063191",
            "id usuario": "311232",
            "prioridade": "Média",
            "status": "Finalizado",
            "data cadastro": "6/7/2020 3:52:40 PM",
            "data atualizacao": "6/7/2020 3:52:40 PM",
            "data atendimento": "",
            "id usuario cadastro": "311232",
            "comentario": "Cliente cadastrado"
        },
        {
            "id atendimento": "273141638",
            "id atendimento retorno": "0",
            "id cliente": "40255568",
            "id usuario": "311232",
            "prioridade": "Média",
            "status": "Finalizado",
            "data cadastro": "6/16/2020 5:24:53 PM",
            "data atualizacao": "6/16/2020 5:24:53 PM",
            "data atendimento": "",
            "id usuario cadastro": "311232",
            "comentario": "Cliente cadastrado"
        },
        {
            "id atendimento": "274042754",
            "id atendimento retorno": "0",
            "id cliente": "40451606",
            "id usuario": "311232",
            "prioridade": "Média",
            "status": "Finalizado",
            "data cadastro": "6/22/2020 12:15:47 PM",
            "data atualizacao": "6/22/2020 12:15:47 PM",
            "data atendimento": "",
            "id usuario cadastro": "311232",
            "comentario": "Cliente cadastrado"
        },
        {
            "id atendimento": "274224944",
            "id atendimento retorno": "0",
            "id cliente": "40486436",
            "id usuario": "311232",
            "prioridade": "Média",
            "status": "Finalizado",
            "data cadastro": "6/23/2020 3:10:05 PM",
            "data atualizacao": "6/23/2020 3:10:05 PM",
            "data atendimento": "",
            "id usuario cadastro": "311232",
            "comentario": "Cliente cadastrado"
        },
        {
            "id atendimento": "274237252",
            "id atendimento retorno": "0",
            "id cliente": "40489396",
            "id usuario": "311232",
            "prioridade": "Média",
            "status": "Finalizado",
            "data cadastro": "6/23/2020 4:31:03 PM",
            "data atualizacao": "6/23/2020 4:31:03 PM",
            "data atendimento": "",
            "id usuario cadastro": "311232",
            "comentario": "Cliente cadastrado"
        },
        {
            "id atendimento": "274243072",
            "id atendimento retorno": "0",
            "id cliente": "40490890",
            "id usuario": "311232",
            "prioridade": "Média",
            "status": "Finalizado",
            "data cadastro": "6/23/2020 5:14:07 PM",
            "data atualizacao": "6/23/2020 5:14:07 PM",
            "data atendimento": "",
            "id usuario cadastro": "311232",
            "comentario": "Cliente cadastrado"
        },
        {
            "id atendimento": "274513954",
            "id atendimento retorno": "0",
            "id cliente": "40534836",
            "id usuario": "311232",
            "prioridade": "Média",
            "status": "Finalizado",
            "data cadastro": "6/25/2020 2:23:32 PM",
            "data atualizacao": "6/25/2020 2:23:32 PM",
            "data atendimento": "",
            "id usuario cadastro": "311232",
            "comentario": "Cliente cadastrado"
        },
        {
            "id atendimento": "274524205",
            "id atendimento retorno": "0",
            "id cliente": "40540348",
            "id usuario": "311232",
            "prioridade": "Média",
            "status": "Finalizado",
            "data cadastro": "6/25/2020 3:31:57 PM",
            "data atualizacao": "6/25/2020 3:31:57 PM",
            "data atendimento": "",
            "id usuario cadastro": "311232",
            "comentario": "Cliente cadastrado"
        },
        {
            "id atendimento": "274709368",
            "id atendimento retorno": "0",
            "id cliente": "40565615",
            "id usuario": "311232",
            "prioridade": "Média",
            "status": "Finalizado",
            "data cadastro": "6/26/2020 4:53:59 PM",
            "data atualizacao": "6/26/2020 4:53:59 PM",
            "data atendimento": "",
            "id usuario cadastro": "311232",
            "comentario": "Cliente cadastrado"
        },
        {
            "id atendimento": "274710761",
            "id atendimento retorno": "0",
            "id cliente": "40565808",
            "id usuario": "311232",
            "prioridade": "Média",
            "status": "Finalizado",
            "data cadastro": "6/26/2020 5:00:49 PM",
            "data atualizacao": "6/26/2020 5:00:49 PM",
            "data atendimento": "",
            "id usuario cadastro": "311232",
            "comentario": "Cliente cadastrado"
        },
        {
            "id atendimento": "274837234",
            "id atendimento retorno": "0",
            "id cliente": "40577262",
            "id usuario": "311232",
            "prioridade": "Média",
            "status": "Finalizado",
            "data cadastro": "6/27/2020 2:22:05 PM",
            "data atualizacao": "6/27/2020 2:22:05 PM",
            "data atendimento": "",
            "id usuario cadastro": "311232",
            "comentario": "Cliente cadastrado"
        },
        {
            "id atendimento": "275129072",
            "id atendimento retorno": "0",
            "id cliente": "40599958",
            "id usuario": "311232",
            "prioridade": "Média",
            "status": "Finalizado",
            "data cadastro": "6/29/2020 11:43:17 AM",
            "data atualizacao": "6/29/2020 11:43:17 AM",
            "data atendimento": "",
            "id usuario cadastro": "311232",
            "comentario": "Cliente cadastrado"
        },
        {
            "id atendimento": "275163695",
            "id atendimento retorno": "0",
            "id cliente": "40606651",
            "id usuario": "311232",
            "prioridade": "Média",
            "status": "Finalizado",
            "data cadastro": "6/29/2020 2:20:52 PM",
            "data atualizacao": "6/29/2020 2:20:52 PM",
            "data atendimento": "",
            "id usuario cadastro": "311232",
            "comentario": "Cliente cadastrado"
        },
        {
            "id atendimento": "275367582",
            "id atendimento retorno": "0",
            "id cliente": "40630576",
            "id usuario": "311232",
            "prioridade": "Média",
            "status": "Finalizado",
            "data cadastro": "6/30/2020 12:56:05 PM",
            "data atualizacao": "6/30/2020 12:56:05 PM",
            "data atendimento": "",
            "id usuario cadastro": "311232",
            "comentario": "Cliente cadastrado"
        },
        {
            "id atendimento": "275637892",
            "id atendimento retorno": "0",
            "id cliente": "40683782",
            "id usuario": "311232",
            "prioridade": "Média",
            "status": "Finalizado",
            "data cadastro": "7/1/2020 1:51:30 PM",
            "data atualizacao": "7/1/2020 1:51:30 PM",
            "data atendimento": "",
            "id usuario cadastro": "311232",
            "comentario": "Cliente cadastrado"
        },
        {
            "id atendimento": "275662077",
            "id atendimento retorno": "0",
            "id cliente": "40688722",
            "id usuario": "311232",
            "prioridade": "Média",
            "status": "Finalizado",
            "data cadastro": "7/1/2020 4:13:01 PM",
            "data atualizacao": "7/1/2020 4:13:01 PM",
            "data atendimento": "",
            "id usuario cadastro": "311232",
            "comentario": "Cliente cadastrado"
        },
        {
            "id atendimento": "275846398",
            "id atendimento retorno": "0",
            "id cliente": "40717326",
            "id usuario": "311232",
            "prioridade": "Média",
            "status": "Finalizado",
            "data cadastro": "7/2/2020 4:34:49 PM",
            "data atualizacao": "7/2/2020 4:34:49 PM",
            "data atendimento": "",
            "id usuario cadastro": "311232",
            "comentario": "Cliente cadastrado"
        },
        {
            "id atendimento": "276577937",
            "id atendimento retorno": "0",
            "id cliente": "40856131",
            "id usuario": "311232",
            "prioridade": "Média",
            "status": "Finalizado",
            "data cadastro": "7/7/2020 11:38:52 PM",
            "data atualizacao": "7/7/2020 11:38:52 PM",
            "data atendimento": "",
            "id usuario cadastro": "311232",
            "comentario": "Cliente cadastrado"
        },
        {
            "id atendimento": "276583101",
            "id atendimento retorno": "0",
            "id cliente": "40856532",
            "id usuario": "311232",
            "prioridade": "Média",
            "status": "Finalizado",
            "data cadastro": "7/8/2020 1:56:15 AM",
            "data atualizacao": "7/8/2020 1:56:15 AM",
            "data atendimento": "",
            "id usuario cadastro": "311232",
            "comentario": "Cliente cadastrado"
        },
        {
            "id atendimento": "277173439",
            "id atendimento retorno": "0",
            "id cliente": "40940502",
            "id usuario": "311232",
            "prioridade": "Média",
            "status": "Finalizado",
            "data cadastro": "7/11/2020 8:07:48 AM",
            "data atualizacao": "7/11/2020 8:07:48 AM",
            "data atendimento": "",
            "id usuario cadastro": "311232",
            "comentario": "Cliente cadastrado"
        },
        {
            "id atendimento": "277225230",
            "id atendimento retorno": "0",
            "id cliente": "40948591",
            "id usuario": "311232",
            "prioridade": "Média",
            "status": "Finalizado",
            "data cadastro": "7/11/2020 6:27:35 PM",
            "data atualizacao": "7/11/2020 6:27:35 PM",
            "data atendimento": "",
            "id usuario cadastro": "311232",
            "comentario": "Cliente cadastrado"
        },
        {
            "id atendimento": "278487098",
            "id atendimento retorno": "0",
            "id cliente": "41240403",
            "id usuario": "311232",
            "prioridade": "Média",
            "status": "Finalizado",
            "data cadastro": "7/20/2020 11:59:21 AM",
            "data atualizacao": "7/20/2020 11:59:21 AM",
            "data atendimento": "",
            "id usuario cadastro": "311232",
            "comentario": "Cliente cadastrado"
        },
        {
            "id atendimento": "278546493",
            "id atendimento retorno": "0",
            "id cliente": "41262762",
            "id usuario": "311232",
            "prioridade": "Média",
            "status": "Finalizado",
            "data cadastro": "7/20/2020 4:55:20 PM",
            "data atualizacao": "7/20/2020 4:55:20 PM",
            "data atendimento": "",
            "id usuario cadastro": "311232",
            "comentario": "Cliente cadastrado"
        },
        {
            "id atendimento": "278552805",
            "id atendimento retorno": "0",
            "id cliente": "41266847",
            "id usuario": "311232",
            "prioridade": "Média",
            "status": "Finalizado",
            "data cadastro": "7/20/2020 5:31:42 PM",
            "data atualizacao": "7/20/2020 5:31:42 PM",
            "data atendimento": "",
            "id usuario cadastro": "311232",
            "comentario": "Cliente cadastrado"
        },
        {
            "id atendimento": "279028865",
            "id atendimento retorno": "0",
            "id cliente": "41357069",
            "id usuario": "311232",
            "prioridade": "Média",
            "status": "Finalizado",
            "data cadastro": "7/23/2020 12:52:56 PM",
            "data atualizacao": "7/23/2020 12:52:56 PM",
            "data atendimento": "",
            "id usuario cadastro": "311232",
            "comentario": "Cliente cadastrado"
        },
        {
            "id atendimento": "280502853",
            "id atendimento retorno": "0",
            "id cliente": "41801860",
            "id usuario": "311232",
            "prioridade": "Média",
            "status": "Finalizado",
            "data cadastro": "8/2/2020 11:23:32 AM",
            "data atualizacao": "8/2/2020 11:23:32 AM",
            "data atendimento": "",
            "id usuario cadastro": "311232",
            "comentario": "Cliente cadastrado"
        },
        {
            "id atendimento": "281365411",
            "id atendimento retorno": "0",
            "id cliente": "42011365",
            "id usuario": "311232",
            "prioridade": "Média",
            "status": "Finalizado",
            "data cadastro": "8/7/2020 10:38:43 PM",
            "data atualizacao": "8/7/2020 10:38:43 PM",
            "data atendimento": "",
            "id usuario cadastro": "311232",
            "comentario": "Cliente cadastrado"
        },
        {
            "id atendimento": "281429817",
            "id atendimento retorno": "0",
            "id cliente": "42020790",
            "id usuario": "311232",
            "prioridade": "Média",
            "status": "Finalizado",
            "data cadastro": "8/8/2020 6:52:29 PM",
            "data atualizacao": "8/8/2020 6:52:29 PM",
            "data atendimento": "",
            "id usuario cadastro": "311232",
            "comentario": "Cliente cadastrado"
        },
        {
            "id atendimento": "281888920",
            "id atendimento retorno": "0",
            "id cliente": "42115854",
            "id usuario": "311232",
            "prioridade": "Média",
            "status": "Finalizado",
            "data cadastro": "8/11/2020 5:40:17 PM",
            "data atualizacao": "8/11/2020 5:40:17 PM",
            "data atendimento": "",
            "id usuario cadastro": "311232",
            "comentario": "Cliente cadastrado"
        },
        {
            "id atendimento": "281899132",
            "id atendimento retorno": "0",
            "id cliente": "42118375",
            "id usuario": "311232",
            "prioridade": "Média",
            "status": "Finalizado",
            "data cadastro": "8/11/2020 8:49:06 PM",
            "data atualizacao": "8/11/2020 8:49:06 PM",
            "data atendimento": "",
            "id usuario cadastro": "311232",
            "comentario": "Cliente cadastrado"
        },
        {
            "id atendimento": "281900935",
            "id atendimento retorno": "0",
            "id cliente": "42119027",
            "id usuario": "311232",
            "prioridade": "Média",
            "status": "Finalizado",
            "data cadastro": "8/11/2020 9:39:47 PM",
            "data atualizacao": "8/11/2020 9:39:47 PM",
            "data atendimento": "",
            "id usuario cadastro": "311232",
            "comentario": "Cliente cadastrado"
        },
        {
            "id atendimento": "281992110",
            "id atendimento retorno": "0",
            "id cliente": "42130325",
            "id usuario": "311232",
            "prioridade": "Média",
            "status": "Finalizado",
            "data cadastro": "8/12/2020 11:32:43 AM",
            "data atualizacao": "8/12/2020 11:32:43 AM",
            "data atendimento": "",
            "id usuario cadastro": "311232",
            "comentario": "Cliente cadastrado"
        },
        {
            "id atendimento": "281998608",
            "id atendimento retorno": "0",
            "id cliente": "42131564",
            "id usuario": "311232",
            "prioridade": "Média",
            "status": "Finalizado",
            "data cadastro": "8/12/2020 12:03:50 PM",
            "data atualizacao": "8/12/2020 12:03:50 PM",
            "data atendimento": "",
            "id usuario cadastro": "311232",
            "comentario": "Cliente cadastrado"
        },
        {
            "id atendimento": "282050345",
            "id atendimento retorno": "0",
            "id cliente": "42145823",
            "id usuario": "311232",
            "prioridade": "Média",
            "status": "Finalizado",
            "data cadastro": "8/12/2020 5:12:21 PM",
            "data atualizacao": "8/12/2020 5:12:21 PM",
            "data atendimento": "",
            "id usuario cadastro": "311232",
            "comentario": "Cliente cadastrado"
        },
        {
            "id atendimento": "282322612",
            "id atendimento retorno": "0",
            "id cliente": "42189570",
            "id usuario": "311232",
            "prioridade": "Média",
            "status": "Finalizado",
            "data cadastro": "8/14/2020 11:42:38 AM",
            "data atualizacao": "8/14/2020 11:42:38 AM",
            "data atendimento": "",
            "id usuario cadastro": "311232",
            "comentario": "Cliente cadastrado"
        },
        {
            "id atendimento": "282328597",
            "id atendimento retorno": "0",
            "id cliente": "42190704",
            "id usuario": "311232",
            "prioridade": "Média",
            "status": "Finalizado",
            "data cadastro": "8/14/2020 12:15:27 PM",
            "data atualizacao": "8/14/2020 12:15:27 PM",
            "data atendimento": "",
            "id usuario cadastro": "311232",
            "comentario": "Cliente cadastrado"
        },
        {
            "id atendimento": "282350824",
            "id atendimento retorno": "0",
            "id cliente": "42195351",
            "id usuario": "311232",
            "prioridade": "Média",
            "status": "Finalizado",
            "data cadastro": "8/14/2020 2:57:54 PM",
            "data atualizacao": "8/14/2020 2:57:54 PM",
            "data atendimento": "",
            "id usuario cadastro": "311232",
            "comentario": "Cliente cadastrado"
        },
        {
            "id atendimento": "282357622",
            "id atendimento retorno": "0",
            "id cliente": "42197251",
            "id usuario": "311232",
            "prioridade": "Média",
            "status": "Finalizado",
            "data cadastro": "8/14/2020 3:45:28 PM",
            "data atualizacao": "8/14/2020 3:45:28 PM",
            "data atendimento": "",
            "id usuario cadastro": "311232",
            "comentario": "Cliente cadastrado"
        },
        {
            "id atendimento": "282921138",
            "id atendimento retorno": "0",
            "id cliente": "42297159",
            "id usuario": "311232",
            "prioridade": "Média",
            "status": "Finalizado",
            "data cadastro": "8/18/2020 11:09:57 PM",
            "data atualizacao": "8/18/2020 11:09:57 PM",
            "data atendimento": "",
            "id usuario cadastro": "311232",
            "comentario": "Cliente cadastrado"
        },
        {
            "id atendimento": "283070481",
            "id atendimento retorno": "0",
            "id cliente": "42325046",
            "id usuario": "311232",
            "prioridade": "Média",
            "status": "Finalizado",
            "data cadastro": "8/19/2020 7:46:57 PM",
            "data atualizacao": "8/19/2020 7:46:57 PM",
            "data atendimento": "",
            "id usuario cadastro": "311232",
            "comentario": "Cliente cadastrado"
        },
        {
            "id atendimento": "285850319",
            "id atendimento retorno": "0",
            "id cliente": "42708693",
            "id usuario": "311232",
            "prioridade": "Média",
            "status": "Finalizado",
            "data cadastro": "9/4/2020 1:57:30 PM",
            "data atualizacao": "9/4/2020 1:57:30 PM",
            "data atendimento": "",
            "id usuario cadastro": "311232",
            "comentario": "Cliente cadastrado"
        },
        {
            "id atendimento": "285856464",
            "id atendimento retorno": "0",
            "id cliente": "42709939",
            "id usuario": "311232",
            "prioridade": "Média",
            "status": "Finalizado",
            "data cadastro": "9/4/2020 2:35:51 PM",
            "data atualizacao": "9/4/2020 2:35:51 PM",
            "data atendimento": "",
            "id usuario cadastro": "311232",
            "comentario": "Cliente cadastrado"
        },
        {
            "id atendimento": "285862989",
            "id atendimento retorno": "0",
            "id cliente": "42711285",
            "id usuario": "311232",
            "prioridade": "Média",
            "status": "Finalizado",
            "data cadastro": "9/4/2020 3:13:56 PM",
            "data atualizacao": "9/4/2020 3:13:56 PM",
            "data atendimento": "",
            "id usuario cadastro": "311232",
            "comentario": "Cliente cadastrado"
        },
        {
            "id atendimento": "286838466",
            "id atendimento retorno": "0",
            "id cliente": "42842191",
            "id usuario": "311232",
            "prioridade": "Média",
            "status": "Finalizado",
            "data cadastro": "9/10/2020 10:38:28 AM",
            "data atualizacao": "9/10/2020 10:38:28 AM",
            "data atendimento": "",
            "id usuario cadastro": "311232",
            "comentario": "Cliente cadastrado"
        },
        {
            "id atendimento": "288673517",
            "id atendimento retorno": "0",
            "id cliente": "43104724",
            "id usuario": "311232",
            "prioridade": "Média",
            "status": "Finalizado",
            "data cadastro": "9/21/2020 3:02:32 PM",
            "data atualizacao": "9/21/2020 3:02:32 PM",
            "data atendimento": "",
            "id usuario cadastro": "311232",
            "comentario": "Cliente cadastrado"
        },
        {
            "id atendimento": "290351882",
            "id atendimento retorno": "0",
            "id cliente": "43350306",
            "id usuario": "311232",
            "prioridade": "Média",
            "status": "Finalizado",
            "data cadastro": "9/30/2020 9:51:13 AM",
            "data atualizacao": "9/30/2020 9:51:13 AM",
            "data atendimento": "",
            "id usuario cadastro": "311232",
            "comentario": "Cliente cadastrado"
        },
        {
            "id atendimento": "297270193",
            "id atendimento retorno": "0",
            "id cliente": "44479593",
            "id usuario": "311232",
            "prioridade": "Média",
            "status": "Finalizado",
            "data cadastro": "11/5/2020 2:28:10 PM",
            "data atualizacao": "11/5/2020 2:28:10 PM",
            "data atendimento": "",
            "id usuario cadastro": "311232",
            "comentario": "Cliente cadastrado"
        },
        {
            "id atendimento": "297595959",
            "id atendimento retorno": "0",
            "id cliente": "44518189",
            "id usuario": "311232",
            "prioridade": "Média",
            "status": "Finalizado",
            "data cadastro": "11/7/2020 10:10:57 AM",
            "data atualizacao": "11/7/2020 10:10:57 AM",
            "data atendimento": "",
            "id usuario cadastro": "311232",
            "comentario": "Cliente cadastrado"
        },
        {
            "id atendimento": "297615465",
            "id atendimento retorno": "0",
            "id cliente": "44521066",
            "id usuario": "311232",
            "prioridade": "Média",
            "status": "Finalizado",
            "data cadastro": "11/7/2020 11:59:47 AM",
            "data atualizacao": "11/7/2020 11:59:47 AM",
            "data atendimento": "",
            "id usuario cadastro": "311232",
            "comentario": "Cliente cadastrado"
        },
        {
            "id atendimento": "298700560",
            "id atendimento retorno": "0",
            "id cliente": "44671256",
            "id usuario": "311232",
            "prioridade": "Média",
            "status": "Finalizado",
            "data cadastro": "11/13/2020 12:20:05 PM",
            "data atualizacao": "11/13/2020 12:20:05 PM",
            "data atendimento": "",
            "id usuario cadastro": "311232",
            "comentario": "Cliente cadastrado"
        },
        {
            "id atendimento": "298848148",
            "id atendimento retorno": "0",
            "id cliente": "44692330",
            "id usuario": "311232",
            "prioridade": "Média",
            "status": "Finalizado",
            "data cadastro": "11/14/2020 12:31:57 PM",
            "data atualizacao": "11/14/2020 12:31:57 PM",
            "data atendimento": "",
            "id usuario cadastro": "311232",
            "comentario": "Cliente cadastrado"
        },
        {
            "id atendimento": "299119820",
            "id atendimento retorno": "0",
            "id cliente": "44730721",
            "id usuario": "311232",
            "prioridade": "Média",
            "status": "Finalizado",
            "data cadastro": "11/16/2020 4:00:24 PM",
            "data atualizacao": "11/16/2020 4:00:24 PM",
            "data atendimento": "",
            "id usuario cadastro": "311232",
            "comentario": "Cliente cadastrado"
        },
        {
            "id atendimento": "299121327",
            "id atendimento retorno": "0",
            "id cliente": "44731120",
            "id usuario": "311232",
            "prioridade": "Média",
            "status": "Finalizado",
            "data cadastro": "11/16/2020 4:07:12 PM",
            "data atualizacao": "11/16/2020 4:07:12 PM",
            "data atendimento": "",
            "id usuario cadastro": "311232",
            "comentario": "Cliente cadastrado"
        },
        {
            "id atendimento": "299122752",
            "id atendimento retorno": "0",
            "id cliente": "44731519",
            "id usuario": "311232",
            "prioridade": "Média",
            "status": "Finalizado",
            "data cadastro": "11/16/2020 4:14:14 PM",
            "data atualizacao": "11/16/2020 4:14:14 PM",
            "data atendimento": "",
            "id usuario cadastro": "311232",
            "comentario": "Cliente cadastrado"
        },
        {
            "id atendimento": "299123733",
            "id atendimento retorno": "0",
            "id cliente": "44731772",
            "id usuario": "311232",
            "prioridade": "Média",
            "status": "Finalizado",
            "data cadastro": "11/16/2020 4:18:38 PM",
            "data atualizacao": "11/16/2020 4:18:38 PM",
            "data atendimento": "",
            "id usuario cadastro": "311232",
            "comentario": "Cliente cadastrado"
        },
        {
            "id atendimento": "299125703",
            "id atendimento retorno": "0",
            "id cliente": "44732254",
            "id usuario": "311232",
            "prioridade": "Média",
            "status": "Finalizado",
            "data cadastro": "11/16/2020 4:28:00 PM",
            "data atualizacao": "11/16/2020 4:28:00 PM",
            "data atendimento": "",
            "id usuario cadastro": "311232",
            "comentario": "Cliente cadastrado"
        },
        {
            "id atendimento": "299125704",
            "id atendimento retorno": "0",
            "id cliente": "44732254",
            "id usuario": "311232",
            "prioridade": "Alta",
            "status": "Finalizado",
            "data cadastro": "11/16/2020 4:28:00 PM",
            "data atualizacao": "11/26/2020 9:10:12 AM",
            "data atendimento": "11/16/2020 4:19:00 PM",
            "id usuario cadastro": "311232",
            "comentario": "telefone somente para cadastro solicita contato por e-mail"
        },
        {
            "id atendimento": "299264937",
            "id atendimento retorno": "0",
            "id cliente": "44751367",
            "id usuario": "311232",
            "prioridade": "Média",
            "status": "Finalizado",
            "data cadastro": "11/17/2020 11:46:06 AM",
            "data atualizacao": "11/17/2020 11:46:06 AM",
            "data atendimento": "",
            "id usuario cadastro": "311232",
            "comentario": "Cliente cadastrado"
        },
        {
            "id atendimento": "299317568",
            "id atendimento retorno": "0",
            "id cliente": "44762125",
            "id usuario": "311232",
            "prioridade": "Média",
            "status": "Finalizado",
            "data cadastro": "11/17/2020 4:15:20 PM",
            "data atualizacao": "11/17/2020 4:15:20 PM",
            "data atendimento": "",
            "id usuario cadastro": "311232",
            "comentario": "Cliente cadastrado"
        },
        {
            "id atendimento": "299462194",
            "id atendimento retorno": "0",
            "id cliente": "44780436",
            "id usuario": "311232",
            "prioridade": "Média",
            "status": "Finalizado",
            "data cadastro": "11/18/2020 12:07:20 PM",
            "data atualizacao": "11/18/2020 12:07:20 PM",
            "data atendimento": "",
            "id usuario cadastro": "311232",
            "comentario": "Cliente cadastrado"
        },
        {
            "id atendimento": "300835213",
            "id atendimento retorno": "299125704",
            "id cliente": "44732254",
            "id usuario": "311232",
            "prioridade": "Alta",
            "status": "Finalizado",
            "data cadastro": "11/26/2020 9:10:12 AM",
            "data atualizacao": "11/26/2020 9:10:12 AM",
            "data atendimento": "",
            "id usuario cadastro": "311232",
            "comentario": "Olá bom dia, poderíamos estar conversando melhor"
        },
        {
            "id atendimento": "300922044",
            "id atendimento retorno": "0",
            "id cliente": "44970292",
            "id usuario": "311232",
            "prioridade": "Média",
            "status": "Finalizado",
            "data cadastro": "11/26/2020 3:15:44 PM",
            "data atualizacao": "11/26/2020 3:15:44 PM",
            "data atendimento": "",
            "id usuario cadastro": "311232",
            "comentario": "Cliente cadastrado"
        }
    ]
}