{
    "ImoveisUsuarios": [
        {
            "id": "21245930",
            "id imovel": "63083246",
            "id usuario": "311232",
            "tipo comissao": "Captador",
            "venda": "Sim",
            "locacao": "Sim",
            "data cadastro": "11/10/2019 6:23:44 PM",
            "data atualizacao": "11/10/2019 6:23:44 PM"
        },
        {
            "id": "21246006",
            "id imovel": "63083315",
            "id usuario": "311232",
            "tipo comissao": "Captador",
            "venda": "Sim",
            "locacao": "Sim",
            "data cadastro": "11/10/2019 7:52:09 PM",
            "data atualizacao": "11/10/2019 7:52:09 PM"
        },
        {
            "id": "21246248",
            "id imovel": "63083534",
            "id usuario": "311232",
            "tipo comissao": "Captador",
            "venda": "Sim",
            "locacao": "Sim",
            "data cadastro": "11/11/2019 12:11:05 AM",
            "data atualizacao": "11/11/2019 12:11:05 AM"
        },
        {
            "id": "21246278",
            "id imovel": "63083549",
            "id usuario": "311232",
            "tipo comissao": "Captador",
            "venda": "Sim",
            "locacao": "Sim",
            "data cadastro": "11/11/2019 12:58:06 AM",
            "data atualizacao": "11/11/2019 12:58:06 AM"
        },
        {
            "id": "21246280",
            "id imovel": "63083551",
            "id usuario": "311232",
            "tipo comissao": "Captador",
            "venda": "Sim",
            "locacao": "Sim",
            "data cadastro": "11/11/2019 1:08:18 AM",
            "data atualizacao": "9/25/2020 8:09:22 AM"
        },
        {
            "id": "21246289",
            "id imovel": "63083556",
            "id usuario": "311232",
            "tipo comissao": "Captador",
            "venda": "Sim",
            "locacao": "Sim",
            "data cadastro": "11/11/2019 1:22:08 AM",
            "data atualizacao": "11/11/2019 1:22:08 AM"
        },
        {
            "id": "21246305",
            "id imovel": "63083564",
            "id usuario": "311232",
            "tipo comissao": "Captador",
            "venda": "Sim",
            "locacao": "Sim",
            "data cadastro": "11/11/2019 1:38:54 AM",
            "data atualizacao": "11/11/2019 1:38:54 AM"
        },
        {
            "id": "21246309",
            "id imovel": "63083566",
            "id usuario": "311232",
            "tipo comissao": "Captador",
            "venda": "Sim",
            "locacao": "Sim",
            "data cadastro": "11/11/2019 1:46:31 AM",
            "data atualizacao": "11/11/2019 1:46:31 AM"
        },
        {
            "id": "21246317",
            "id imovel": "63083570",
            "id usuario": "311232",
            "tipo comissao": "Captador",
            "venda": "Sim",
            "locacao": "Sim",
            "data cadastro": "11/11/2019 2:00:36 AM",
            "data atualizacao": "12/12/2019 1:30:21 PM"
        },
        {
            "id": "21246327",
            "id imovel": "63083574",
            "id usuario": "311232",
            "tipo comissao": "Captador",
            "venda": "Sim",
            "locacao": "Sim",
            "data cadastro": "11/11/2019 2:18:46 AM",
            "data atualizacao": "11/11/2019 2:29:00 AM"
        },
        {
            "id": "21338971",
            "id imovel": "63162612",
            "id usuario": "311232",
            "tipo comissao": "Captador",
            "venda": "Sim",
            "locacao": "Sim",
            "data cadastro": "11/22/2019 11:46:19 PM",
            "data atualizacao": "11/22/2019 11:47:54 PM"
        },
        {
            "id": "21338976",
            "id imovel": "63162617",
            "id usuario": "311232",
            "tipo comissao": "Captador",
            "venda": "Sim",
            "locacao": "Sim",
            "data cadastro": "11/22/2019 11:59:09 PM",
            "data atualizacao": "12/13/2019 11:03:36 PM"
        },
        {
            "id": "21338987",
            "id imovel": "63162628",
            "id usuario": "311232",
            "tipo comissao": "Captador",
            "venda": "Sim",
            "locacao": "Sim",
            "data cadastro": "11/23/2019 12:20:29 AM",
            "data atualizacao": "11/23/2019 12:20:29 AM"
        },
        {
            "id": "21338993",
            "id imovel": "63162634",
            "id usuario": "311232",
            "tipo comissao": "Captador",
            "venda": "Sim",
            "locacao": "Sim",
            "data cadastro": "11/23/2019 12:38:59 AM",
            "data atualizacao": "11/23/2019 12:38:59 AM"
        },
        {
            "id": "21338998",
            "id imovel": "63162639",
            "id usuario": "311232",
            "tipo comissao": "Captador",
            "venda": "Sim",
            "locacao": "Sim",
            "data cadastro": "11/23/2019 12:51:05 AM",
            "data atualizacao": "12/13/2019 10:43:42 PM"
        },
        {
            "id": "21339000",
            "id imovel": "63162641",
            "id usuario": "311232",
            "tipo comissao": "Captador",
            "venda": "Sim",
            "locacao": "Sim",
            "data cadastro": "11/23/2019 1:00:42 AM",
            "data atualizacao": "12/13/2019 10:19:11 PM"
        },
        {
            "id": "21339005",
            "id imovel": "63162646",
            "id usuario": "311232",
            "tipo comissao": "Captador",
            "venda": "Sim",
            "locacao": "Sim",
            "data cadastro": "11/23/2019 1:15:35 AM",
            "data atualizacao": "12/13/2019 9:46:52 PM"
        },
        {
            "id": "21339009",
            "id imovel": "63162650",
            "id usuario": "311232",
            "tipo comissao": "Captador",
            "venda": "Sim",
            "locacao": "Sim",
            "data cadastro": "11/23/2019 1:23:34 AM",
            "data atualizacao": "12/13/2019 9:35:29 PM"
        },
        {
            "id": "21339015",
            "id imovel": "63162656",
            "id usuario": "311232",
            "tipo comissao": "Captador",
            "venda": "Sim",
            "locacao": "Sim",
            "data cadastro": "11/23/2019 1:34:41 AM",
            "data atualizacao": "12/13/2019 9:20:35 PM"
        },
        {
            "id": "21341978",
            "id imovel": "63165036",
            "id usuario": "311232",
            "tipo comissao": "Captador",
            "venda": "Sim",
            "locacao": "Não",
            "data cadastro": "11/24/2019 11:22:50 PM",
            "data atualizacao": "12/6/2019 3:21:22 PM"
        },
        {
            "id": "21342001",
            "id imovel": "63165059",
            "id usuario": "311232",
            "tipo comissao": "Captador",
            "venda": "Sim",
            "locacao": "Não",
            "data cadastro": "11/25/2019 12:13:15 AM",
            "data atualizacao": "12/6/2019 3:19:02 PM"
        },
        {
            "id": "21390690",
            "id imovel": "63206965",
            "id usuario": "311232",
            "tipo comissao": "Captador",
            "venda": "Não",
            "locacao": "Sim",
            "data cadastro": "11/28/2019 8:51:21 PM",
            "data atualizacao": "12/6/2019 3:15:53 PM"
        },
        {
            "id": "21390820",
            "id imovel": "63207092",
            "id usuario": "311232",
            "tipo comissao": "Captador",
            "venda": "Sim",
            "locacao": "Não",
            "data cadastro": "11/28/2019 10:00:32 PM",
            "data atualizacao": "11/27/2020 12:00:19 PM"
        },
        {
            "id": "21390839",
            "id imovel": "63207104",
            "id usuario": "311232",
            "tipo comissao": "Captador",
            "venda": "Sim",
            "locacao": "Não",
            "data cadastro": "11/28/2019 10:19:03 PM",
            "data atualizacao": "11/9/2020 4:15:51 PM"
        },
        {
            "id": "21390951",
            "id imovel": "63207203",
            "id usuario": "311232",
            "tipo comissao": "Captador",
            "venda": "Sim",
            "locacao": "Sim",
            "data cadastro": "11/29/2019 2:13:16 AM",
            "data atualizacao": "12/6/2019 3:03:47 PM"
        },
        {
            "id": "21454957",
            "id imovel": "63259529",
            "id usuario": "311232",
            "tipo comissao": "Captador",
            "venda": "Sim",
            "locacao": "Sim",
            "data cadastro": "12/4/2019 11:34:10 PM",
            "data atualizacao": "12/6/2019 3:00:49 PM"
        },
        {
            "id": "21455003",
            "id imovel": "63259573",
            "id usuario": "311232",
            "tipo comissao": "Captador",
            "venda": "Sim",
            "locacao": "Sim",
            "data cadastro": "12/5/2019 2:48:17 AM",
            "data atualizacao": "12/6/2019 2:58:15 PM"
        },
        {
            "id": "21473350",
            "id imovel": "63275700",
            "id usuario": "311232",
            "tipo comissao": "Captador",
            "venda": "Sim",
            "locacao": "Sim",
            "data cadastro": "12/6/2019 2:35:19 PM",
            "data atualizacao": "12/6/2019 2:56:54 PM"
        },
        {
            "id": "21473669",
            "id imovel": "63275954",
            "id usuario": "311232",
            "tipo comissao": "Captador",
            "venda": "Sim",
            "locacao": "Não",
            "data cadastro": "12/6/2019 2:54:43 PM",
            "data atualizacao": "12/6/2019 2:54:43 PM"
        },
        {
            "id": "21474462",
            "id imovel": "63276576",
            "id usuario": "311232",
            "tipo comissao": "Captador",
            "venda": "Sim",
            "locacao": "Sim",
            "data cadastro": "12/6/2019 3:39:53 PM",
            "data atualizacao": "12/6/2019 3:39:53 PM"
        },
        {
            "id": "21517995",
            "id imovel": "63312198",
            "id usuario": "311232",
            "tipo comissao": "Captador",
            "venda": "Sim",
            "locacao": "Sim",
            "data cadastro": "12/12/2019 3:45:51 PM",
            "data atualizacao": "12/12/2019 3:45:51 PM"
        },
        {
            "id": "21523155",
            "id imovel": "63316930",
            "id usuario": "311232",
            "tipo comissao": "Captador",
            "venda": "Sim",
            "locacao": "Sim",
            "data cadastro": "12/12/2019 8:22:51 PM",
            "data atualizacao": "12/12/2019 8:53:53 PM"
        },
        {
            "id": "21523191",
            "id imovel": "63316962",
            "id usuario": "311232",
            "tipo comissao": "Captador",
            "venda": "Sim",
            "locacao": "Sim",
            "data cadastro": "12/12/2019 8:48:36 PM",
            "data atualizacao": "12/12/2019 8:51:15 PM"
        },
        {
            "id": "21530708",
            "id imovel": "63323364",
            "id usuario": "311232",
            "tipo comissao": "Captador",
            "venda": "Sim",
            "locacao": "Sim",
            "data cadastro": "12/13/2019 8:09:38 PM",
            "data atualizacao": "12/13/2019 8:09:38 PM"
        },
        {
            "id": "21532786",
            "id imovel": "63325085",
            "id usuario": "311232",
            "tipo comissao": "Captador",
            "venda": "Sim",
            "locacao": "Sim",
            "data cadastro": "12/14/2019 5:34:38 PM",
            "data atualizacao": "12/14/2019 5:34:38 PM"
        },
        {
            "id": "21532816",
            "id imovel": "63325109",
            "id usuario": "311232",
            "tipo comissao": "Captador",
            "venda": "Sim",
            "locacao": "Sim",
            "data cadastro": "12/14/2019 6:16:40 PM",
            "data atualizacao": "12/14/2019 6:16:40 PM"
        },
        {
            "id": "21532831",
            "id imovel": "63325123",
            "id usuario": "311232",
            "tipo comissao": "Captador",
            "venda": "Sim",
            "locacao": "Sim",
            "data cadastro": "12/14/2019 6:45:20 PM",
            "data atualizacao": "12/14/2019 6:45:20 PM"
        },
        {
            "id": "21534949",
            "id imovel": "63326977",
            "id usuario": "311232",
            "tipo comissao": "Captador",
            "venda": "Sim",
            "locacao": "Sim",
            "data cadastro": "12/16/2019 12:17:21 PM",
            "data atualizacao": "12/16/2019 12:17:21 PM"
        },
        {
            "id": "21538129",
            "id imovel": "63329679",
            "id usuario": "311232",
            "tipo comissao": "Captador",
            "venda": "Sim",
            "locacao": "Sim",
            "data cadastro": "12/16/2019 4:15:05 PM",
            "data atualizacao": "12/16/2019 4:15:05 PM"
        },
        {
            "id": "21542626",
            "id imovel": "63333350",
            "id usuario": "311232",
            "tipo comissao": "Captador",
            "venda": "Sim",
            "locacao": "Sim",
            "data cadastro": "12/17/2019 11:50:38 AM",
            "data atualizacao": "12/17/2019 11:50:38 AM"
        },
        {
            "id": "21572287",
            "id imovel": "63359974",
            "id usuario": "311232",
            "tipo comissao": "Captador",
            "venda": "Sim",
            "locacao": "Sim",
            "data cadastro": "12/19/2019 4:36:54 PM",
            "data atualizacao": "11/9/2020 4:23:32 PM"
        },
        {
            "id": "21572572",
            "id imovel": "63360226",
            "id usuario": "311232",
            "tipo comissao": "Captador",
            "venda": "Sim",
            "locacao": "Sim",
            "data cadastro": "12/19/2019 4:47:26 PM",
            "data atualizacao": "12/19/2019 4:47:26 PM"
        },
        {
            "id": "21579956",
            "id imovel": "63366805",
            "id usuario": "311232",
            "tipo comissao": "Captador",
            "venda": "Sim",
            "locacao": "Sim",
            "data cadastro": "12/20/2019 3:14:48 PM",
            "data atualizacao": "12/20/2019 3:14:48 PM"
        },
        {
            "id": "21585585",
            "id imovel": "63371886",
            "id usuario": "311232",
            "tipo comissao": "Captador",
            "venda": "Sim",
            "locacao": "Sim",
            "data cadastro": "12/23/2019 2:03:09 AM",
            "data atualizacao": "5/23/2020 12:45:28 AM"
        },
        {
            "id": "21591235",
            "id imovel": "63376902",
            "id usuario": "311232",
            "tipo comissao": "Captador",
            "venda": "Sim",
            "locacao": "Sim",
            "data cadastro": "12/26/2019 3:46:26 PM",
            "data atualizacao": "12/26/2019 3:46:26 PM"
        },
        {
            "id": "21603802",
            "id imovel": "63388443",
            "id usuario": "311232",
            "tipo comissao": "Captador",
            "venda": "Sim",
            "locacao": "Sim",
            "data cadastro": "12/29/2019 7:12:25 PM",
            "data atualizacao": "12/29/2019 7:12:25 PM"
        },
        {
            "id": "21603810",
            "id imovel": "63388450",
            "id usuario": "311232",
            "tipo comissao": "Captador",
            "venda": "Sim",
            "locacao": "Sim",
            "data cadastro": "12/29/2019 7:40:48 PM",
            "data atualizacao": "6/15/2020 9:50:31 AM"
        },
        {
            "id": "21605940",
            "id imovel": "63390401",
            "id usuario": "311232",
            "tipo comissao": "Captador",
            "venda": "Sim",
            "locacao": "Sim",
            "data cadastro": "12/31/2019 5:16:54 PM",
            "data atualizacao": "12/31/2019 5:16:54 PM"
        },
        {
            "id": "21616540",
            "id imovel": "63399579",
            "id usuario": "311232",
            "tipo comissao": "Captador",
            "venda": "Sim",
            "locacao": "Sim",
            "data cadastro": "1/5/2020 9:18:38 PM",
            "data atualizacao": "9/25/2020 8:03:06 AM"
        },
        {
            "id": "21616546",
            "id imovel": "63399584",
            "id usuario": "311232",
            "tipo comissao": "Captador",
            "venda": "Sim",
            "locacao": "Sim",
            "data cadastro": "1/5/2020 9:41:01 PM",
            "data atualizacao": "1/5/2020 9:41:01 PM"
        },
        {
            "id": "21677292",
            "id imovel": "63449735",
            "id usuario": "311232",
            "tipo comissao": "Captador",
            "venda": "Sim",
            "locacao": "Sim",
            "data cadastro": "1/13/2020 1:13:41 AM",
            "data atualizacao": "1/13/2020 1:13:41 AM"
        },
        {
            "id": "21677294",
            "id imovel": "63449737",
            "id usuario": "311232",
            "tipo comissao": "Captador",
            "venda": "Sim",
            "locacao": "Sim",
            "data cadastro": "1/13/2020 1:24:02 AM",
            "data atualizacao": "1/13/2020 1:24:02 AM"
        },
        {
            "id": "21677297",
            "id imovel": "63449740",
            "id usuario": "311232",
            "tipo comissao": "Captador",
            "venda": "Sim",
            "locacao": "Sim",
            "data cadastro": "1/13/2020 1:33:47 AM",
            "data atualizacao": "6/15/2020 9:32:43 AM"
        },
        {
            "id": "21952595",
            "id imovel": "63675292",
            "id usuario": "311232",
            "tipo comissao": "Captador",
            "venda": "Sim",
            "locacao": "Sim",
            "data cadastro": "2/7/2020 1:41:23 AM",
            "data atualizacao": "6/15/2020 10:02:55 AM"
        },
        {
            "id": "21952601",
            "id imovel": "63675298",
            "id usuario": "311232",
            "tipo comissao": "Captador",
            "venda": "Sim",
            "locacao": "Sim",
            "data cadastro": "2/7/2020 2:04:55 AM",
            "data atualizacao": "6/27/2020 11:19:26 PM"
        },
        {
            "id": "21952603",
            "id imovel": "63675300",
            "id usuario": "311232",
            "tipo comissao": "Captador",
            "venda": "Sim",
            "locacao": "Sim",
            "data cadastro": "2/7/2020 2:15:48 AM",
            "data atualizacao": "2/7/2020 2:15:48 AM"
        },
        {
            "id": "21965709",
            "id imovel": "63685704",
            "id usuario": "311232",
            "tipo comissao": "Captador",
            "venda": "Sim",
            "locacao": "Sim",
            "data cadastro": "2/9/2020 1:47:07 PM",
            "data atualizacao": "6/10/2020 5:11:32 PM"
        },
        {
            "id": "21965825",
            "id imovel": "63685798",
            "id usuario": "311232",
            "tipo comissao": "Captador",
            "venda": "Sim",
            "locacao": "Sim",
            "data cadastro": "2/9/2020 4:26:23 PM",
            "data atualizacao": "7/7/2020 5:00:26 PM"
        },
        {
            "id": "21965906",
            "id imovel": "63685863",
            "id usuario": "311232",
            "tipo comissao": "Captador",
            "venda": "Sim",
            "locacao": "Sim",
            "data cadastro": "2/9/2020 5:46:58 PM",
            "data atualizacao": "2/9/2020 5:46:58 PM"
        },
        {
            "id": "21966010",
            "id imovel": "63685948",
            "id usuario": "311232",
            "tipo comissao": "Captador",
            "venda": "Sim",
            "locacao": "Sim",
            "data cadastro": "2/9/2020 7:31:20 PM",
            "data atualizacao": "2/9/2020 7:31:20 PM"
        },
        {
            "id": "22019186",
            "id imovel": "63730193",
            "id usuario": "311232",
            "tipo comissao": "Captador",
            "venda": "Sim",
            "locacao": "Sim",
            "data cadastro": "2/15/2020 9:57:44 PM",
            "data atualizacao": "2/15/2020 9:57:44 PM"
        },
        {
            "id": "22019684",
            "id imovel": "63730599",
            "id usuario": "311232",
            "tipo comissao": "Captador",
            "venda": "Sim",
            "locacao": "Sim",
            "data cadastro": "2/16/2020 5:49:05 PM",
            "data atualizacao": "2/16/2020 5:54:02 PM"
        },
        {
            "id": "22019712",
            "id imovel": "63730623",
            "id usuario": "311232",
            "tipo comissao": "Captador",
            "venda": "Sim",
            "locacao": "Sim",
            "data cadastro": "2/16/2020 6:13:55 PM",
            "data atualizacao": "2/16/2020 6:13:55 PM"
        },
        {
            "id": "22023121",
            "id imovel": "63733449",
            "id usuario": "311232",
            "tipo comissao": "Captador",
            "venda": "Sim",
            "locacao": "Sim",
            "data cadastro": "2/17/2020 12:47:28 PM",
            "data atualizacao": "8/1/2020 6:52:16 PM"
        },
        {
            "id": "22031242",
            "id imovel": "63740105",
            "id usuario": "311232",
            "tipo comissao": "Captador",
            "venda": "Sim",
            "locacao": "Sim",
            "data cadastro": "2/18/2020 10:36:41 AM",
            "data atualizacao": "2/18/2020 10:36:41 AM"
        },
        {
            "id": "22047400",
            "id imovel": "63753588",
            "id usuario": "311232",
            "tipo comissao": "Captador",
            "venda": "Sim",
            "locacao": "Sim",
            "data cadastro": "2/19/2020 12:41:27 AM",
            "data atualizacao": "2/19/2020 12:41:27 AM"
        },
        {
            "id": "22080481",
            "id imovel": "63780883",
            "id usuario": "311232",
            "tipo comissao": "Captador",
            "venda": "Sim",
            "locacao": "Sim",
            "data cadastro": "2/20/2020 12:12:06 PM",
            "data atualizacao": "2/20/2020 12:12:06 PM"
        },
        {
            "id": "22087191",
            "id imovel": "63786362",
            "id usuario": "311232",
            "tipo comissao": "Captador",
            "venda": "Sim",
            "locacao": "Sim",
            "data cadastro": "2/20/2020 8:55:54 PM",
            "data atualizacao": "6/10/2020 12:26:55 AM"
        },
        {
            "id": "22097744",
            "id imovel": "63795092",
            "id usuario": "311232",
            "tipo comissao": "Captador",
            "venda": "Sim",
            "locacao": "Sim",
            "data cadastro": "2/23/2020 1:17:01 PM",
            "data atualizacao": "2/23/2020 1:17:01 PM"
        },
        {
            "id": "22097765",
            "id imovel": "63795106",
            "id usuario": "311232",
            "tipo comissao": "Captador",
            "venda": "Sim",
            "locacao": "Sim",
            "data cadastro": "2/23/2020 1:53:31 PM",
            "data atualizacao": "2/23/2020 1:53:31 PM"
        },
        {
            "id": "22107244",
            "id imovel": "63802835",
            "id usuario": "311232",
            "tipo comissao": "Captador",
            "venda": "Sim",
            "locacao": "Sim",
            "data cadastro": "2/26/2020 6:02:34 PM",
            "data atualizacao": "2/26/2020 6:02:34 PM"
        },
        {
            "id": "22135497",
            "id imovel": "63826730",
            "id usuario": "311232",
            "tipo comissao": "Captador",
            "venda": "Sim",
            "locacao": "Sim",
            "data cadastro": "3/2/2020 9:49:31 AM",
            "data atualizacao": "3/2/2020 9:49:31 AM"
        },
        {
            "id": "22136170",
            "id imovel": "63827284",
            "id usuario": "311232",
            "tipo comissao": "Captador",
            "venda": "Sim",
            "locacao": "Sim",
            "data cadastro": "3/2/2020 11:00:54 AM",
            "data atualizacao": "3/2/2020 11:00:54 AM"
        },
        {
            "id": "22179947",
            "id imovel": "63863091",
            "id usuario": "311232",
            "tipo comissao": "Captador",
            "venda": "Sim",
            "locacao": "Sim",
            "data cadastro": "3/6/2020 12:54:54 AM",
            "data atualizacao": "5/15/2020 5:40:22 PM"
        },
        {
            "id": "22179972",
            "id imovel": "63863109",
            "id usuario": "311232",
            "tipo comissao": "Captador",
            "venda": "Sim",
            "locacao": "Sim",
            "data cadastro": "3/6/2020 2:02:04 AM",
            "data atualizacao": "3/6/2020 2:02:04 AM"
        },
        {
            "id": "22203264",
            "id imovel": "63883141",
            "id usuario": "311232",
            "tipo comissao": "Captador",
            "venda": "Sim",
            "locacao": "Sim",
            "data cadastro": "3/7/2020 9:49:09 AM",
            "data atualizacao": "8/1/2020 6:53:45 PM"
        },
        {
            "id": "22206126",
            "id imovel": "63885546",
            "id usuario": "311232",
            "tipo comissao": "Captador",
            "venda": "Sim",
            "locacao": "Sim",
            "data cadastro": "3/8/2020 9:44:47 PM",
            "data atualizacao": "11/12/2020 12:11:09 PM"
        },
        {
            "id": "22216986",
            "id imovel": "63894525",
            "id usuario": "311232",
            "tipo comissao": "Captador",
            "venda": "Sim",
            "locacao": "Sim",
            "data cadastro": "3/10/2020 12:47:50 AM",
            "data atualizacao": "6/10/2020 12:23:38 AM"
        },
        {
            "id": "22226602",
            "id imovel": "63902503",
            "id usuario": "311232",
            "tipo comissao": "Captador",
            "venda": "Sim",
            "locacao": "Sim",
            "data cadastro": "3/10/2020 6:57:39 PM",
            "data atualizacao": "3/10/2020 6:57:39 PM"
        },
        {
            "id": "22249670",
            "id imovel": "63921659",
            "id usuario": "311232",
            "tipo comissao": "Captador",
            "venda": "Sim",
            "locacao": "Sim",
            "data cadastro": "3/12/2020 8:43:32 PM",
            "data atualizacao": "3/12/2020 8:43:32 PM"
        },
        {
            "id": "22258819",
            "id imovel": "63929387",
            "id usuario": "311232",
            "tipo comissao": "Captador",
            "venda": "Sim",
            "locacao": "Sim",
            "data cadastro": "3/13/2020 10:25:15 PM",
            "data atualizacao": "3/13/2020 10:25:15 PM"
        },
        {
            "id": "22273645",
            "id imovel": "63941871",
            "id usuario": "311232",
            "tipo comissao": "Captador",
            "venda": "Sim",
            "locacao": "Sim",
            "data cadastro": "3/17/2020 2:05:21 AM",
            "data atualizacao": "3/17/2020 2:05:21 AM"
        },
        {
            "id": "22306500",
            "id imovel": "63969206",
            "id usuario": "311232",
            "tipo comissao": "Captador",
            "venda": "Sim",
            "locacao": "Sim",
            "data cadastro": "3/22/2020 11:41:45 PM",
            "data atualizacao": "3/22/2020 11:41:45 PM"
        },
        {
            "id": "22306542",
            "id imovel": "63969246",
            "id usuario": "311232",
            "tipo comissao": "Captador",
            "venda": "Sim",
            "locacao": "Sim",
            "data cadastro": "3/23/2020 2:41:25 AM",
            "data atualizacao": "3/23/2020 2:41:25 AM"
        },
        {
            "id": "22365444",
            "id imovel": "64021382",
            "id usuario": "311232",
            "tipo comissao": "Captador",
            "venda": "Sim",
            "locacao": "Sim",
            "data cadastro": "3/31/2020 1:58:27 PM",
            "data atualizacao": "5/21/2020 12:15:37 PM"
        },
        {
            "id": "22399309",
            "id imovel": "64047047",
            "id usuario": "311232",
            "tipo comissao": "Captador",
            "venda": "Sim",
            "locacao": "Sim",
            "data cadastro": "4/3/2020 1:26:41 PM",
            "data atualizacao": "9/25/2020 8:11:25 AM"
        },
        {
            "id": "22408813",
            "id imovel": "64055045",
            "id usuario": "311232",
            "tipo comissao": "Captador",
            "venda": "Sim",
            "locacao": "Sim",
            "data cadastro": "4/6/2020 4:11:44 PM",
            "data atualizacao": "4/6/2020 4:11:44 PM"
        },
        {
            "id": "22425458",
            "id imovel": "64068690",
            "id usuario": "311232",
            "tipo comissao": "Captador",
            "venda": "Sim",
            "locacao": "Sim",
            "data cadastro": "4/8/2020 7:50:43 PM",
            "data atualizacao": "4/8/2020 7:50:43 PM"
        },
        {
            "id": "22425520",
            "id imovel": "64068733",
            "id usuario": "311232",
            "tipo comissao": "Captador",
            "venda": "Sim",
            "locacao": "Sim",
            "data cadastro": "4/8/2020 8:11:52 PM",
            "data atualizacao": "4/8/2020 8:11:52 PM"
        },
        {
            "id": "22425554",
            "id imovel": "64068756",
            "id usuario": "311232",
            "tipo comissao": "Captador",
            "venda": "Sim",
            "locacao": "Sim",
            "data cadastro": "4/8/2020 8:25:58 PM",
            "data atualizacao": "7/7/2020 4:59:33 PM"
        },
        {
            "id": "22431992",
            "id imovel": "64074394",
            "id usuario": "311232",
            "tipo comissao": "Captador",
            "venda": "Sim",
            "locacao": "Sim",
            "data cadastro": "4/9/2020 11:52:00 PM",
            "data atualizacao": "7/7/2020 5:42:09 PM"
        },
        {
            "id": "22432855",
            "id imovel": "64075135",
            "id usuario": "311232",
            "tipo comissao": "Captador",
            "venda": "Sim",
            "locacao": "Sim",
            "data cadastro": "4/10/2020 5:19:05 PM",
            "data atualizacao": "4/10/2020 5:19:05 PM"
        },
        {
            "id": "22442257",
            "id imovel": "64083083",
            "id usuario": "311232",
            "tipo comissao": "Captador",
            "venda": "Sim",
            "locacao": "Sim",
            "data cadastro": "4/14/2020 11:59:25 AM",
            "data atualizacao": "8/1/2020 6:54:32 PM"
        },
        {
            "id": "22457335",
            "id imovel": "64095613",
            "id usuario": "311232",
            "tipo comissao": "Captador",
            "venda": "Sim",
            "locacao": "Sim",
            "data cadastro": "4/16/2020 1:24:01 AM",
            "data atualizacao": "4/16/2020 1:24:01 AM"
        },
        {
            "id": "22462223",
            "id imovel": "64100078",
            "id usuario": "311232",
            "tipo comissao": "Captador",
            "venda": "Sim",
            "locacao": "Sim",
            "data cadastro": "4/16/2020 8:51:50 PM",
            "data atualizacao": "4/16/2020 8:51:50 PM"
        },
        {
            "id": "22462336",
            "id imovel": "64100169",
            "id usuario": "311232",
            "tipo comissao": "Captador",
            "venda": "Sim",
            "locacao": "Sim",
            "data cadastro": "4/16/2020 9:56:33 PM",
            "data atualizacao": "4/16/2020 9:56:33 PM"
        },
        {
            "id": "22475448",
            "id imovel": "64112128",
            "id usuario": "311232",
            "tipo comissao": "Captador",
            "venda": "Sim",
            "locacao": "Sim",
            "data cadastro": "4/20/2020 11:39:31 PM",
            "data atualizacao": "6/15/2020 10:16:04 AM"
        },
        {
            "id": "22475463",
            "id imovel": "64112143",
            "id usuario": "311232",
            "tipo comissao": "Captador",
            "venda": "Sim",
            "locacao": "Sim",
            "data cadastro": "4/21/2020 12:04:40 AM",
            "data atualizacao": "4/21/2020 12:04:40 AM"
        },
        {
            "id": "22492586",
            "id imovel": "64127942",
            "id usuario": "311232",
            "tipo comissao": "Captador",
            "venda": "Sim",
            "locacao": "Sim",
            "data cadastro": "4/23/2020 1:59:24 PM",
            "data atualizacao": "4/23/2020 1:59:24 PM"
        },
        {
            "id": "22498255",
            "id imovel": "64132915",
            "id usuario": "311232",
            "tipo comissao": "Captador",
            "venda": "Sim",
            "locacao": "Sim",
            "data cadastro": "4/24/2020 1:55:38 PM",
            "data atualizacao": "4/24/2020 1:55:38 PM"
        },
        {
            "id": "22519413",
            "id imovel": "64150648",
            "id usuario": "311232",
            "tipo comissao": "Captador",
            "venda": "Sim",
            "locacao": "Sim",
            "data cadastro": "4/27/2020 3:10:40 PM",
            "data atualizacao": "4/27/2020 3:10:40 PM"
        },
        {
            "id": "22520064",
            "id imovel": "64151240",
            "id usuario": "311232",
            "tipo comissao": "Captador",
            "venda": "Sim",
            "locacao": "Sim",
            "data cadastro": "4/27/2020 4:02:35 PM",
            "data atualizacao": "4/27/2020 4:02:35 PM"
        },
        {
            "id": "22529102",
            "id imovel": "64159556",
            "id usuario": "311232",
            "tipo comissao": "Captador",
            "venda": "Sim",
            "locacao": "Sim",
            "data cadastro": "4/29/2020 12:53:03 AM",
            "data atualizacao": "4/29/2020 12:53:03 AM"
        },
        {
            "id": "22529110",
            "id imovel": "64159564",
            "id usuario": "311232",
            "tipo comissao": "Captador",
            "venda": "Sim",
            "locacao": "Sim",
            "data cadastro": "4/29/2020 1:17:31 AM",
            "data atualizacao": "4/29/2020 1:17:31 AM"
        },
        {
            "id": "22545524",
            "id imovel": "64173826",
            "id usuario": "311232",
            "tipo comissao": "Captador",
            "venda": "Sim",
            "locacao": "Sim",
            "data cadastro": "5/1/2020 10:32:53 PM",
            "data atualizacao": "5/1/2020 10:32:53 PM"
        },
        {
            "id": "22545548",
            "id imovel": "64173842",
            "id usuario": "311232",
            "tipo comissao": "Captador",
            "venda": "Sim",
            "locacao": "Não",
            "data cadastro": "5/1/2020 10:56:39 PM",
            "data atualizacao": "11/13/2020 2:18:42 PM"
        },
        {
            "id": "22576220",
            "id imovel": "64201911",
            "id usuario": "311232",
            "tipo comissao": "Captador",
            "venda": "Sim",
            "locacao": "Sim",
            "data cadastro": "5/7/2020 1:49:59 PM",
            "data atualizacao": "6/10/2020 12:24:05 AM"
        },
        {
            "id": "22578311",
            "id imovel": "64203848",
            "id usuario": "311232",
            "tipo comissao": "Captador",
            "venda": "Sim",
            "locacao": "Sim",
            "data cadastro": "5/7/2020 3:56:41 PM",
            "data atualizacao": "7/7/2020 5:22:11 PM"
        },
        {
            "id": "22580049",
            "id imovel": "64205501",
            "id usuario": "311232",
            "tipo comissao": "Captador",
            "venda": "Sim",
            "locacao": "Sim",
            "data cadastro": "5/7/2020 6:50:09 PM",
            "data atualizacao": "7/7/2020 5:01:32 PM"
        },
        {
            "id": "22580311",
            "id imovel": "64205738",
            "id usuario": "311232",
            "tipo comissao": "Captador",
            "venda": "Sim",
            "locacao": "Sim",
            "data cadastro": "5/7/2020 8:00:58 PM",
            "data atualizacao": "6/27/2020 11:16:57 PM"
        },
        {
            "id": "22587779",
            "id imovel": "64212232",
            "id usuario": "311232",
            "tipo comissao": "Captador",
            "venda": "Sim",
            "locacao": "Sim",
            "data cadastro": "5/9/2020 12:36:37 PM",
            "data atualizacao": "5/9/2020 12:36:37 PM"
        },
        {
            "id": "22609475",
            "id imovel": "64231507",
            "id usuario": "311232",
            "tipo comissao": "Captador",
            "venda": "Sim",
            "locacao": "Sim",
            "data cadastro": "5/13/2020 4:40:31 PM",
            "data atualizacao": "5/13/2020 4:40:31 PM"
        },
        {
            "id": "22609768",
            "id imovel": "64231812",
            "id usuario": "311232",
            "tipo comissao": "Captador",
            "venda": "Sim",
            "locacao": "Sim",
            "data cadastro": "5/13/2020 5:01:59 PM",
            "data atualizacao": "5/13/2020 5:01:59 PM"
        },
        {
            "id": "22610233",
            "id imovel": "64232264",
            "id usuario": "311232",
            "tipo comissao": "Captador",
            "venda": "Sim",
            "locacao": "Sim",
            "data cadastro": "5/13/2020 5:40:42 PM",
            "data atualizacao": "5/13/2020 5:40:42 PM"
        },
        {
            "id": "22618406",
            "id imovel": "64239995",
            "id usuario": "311232",
            "tipo comissao": "Captador",
            "venda": "Sim",
            "locacao": "Sim",
            "data cadastro": "5/14/2020 8:31:49 PM",
            "data atualizacao": "6/10/2020 12:22:53 AM"
        },
        {
            "id": "22618809",
            "id imovel": "64240341",
            "id usuario": "311232",
            "tipo comissao": "Captador",
            "venda": "Sim",
            "locacao": "Sim",
            "data cadastro": "5/14/2020 11:24:57 PM",
            "data atualizacao": "8/4/2020 1:04:37 PM"
        },
        {
            "id": "22623748",
            "id imovel": "64244653",
            "id usuario": "311232",
            "tipo comissao": "Captador",
            "venda": "Sim",
            "locacao": "Sim",
            "data cadastro": "5/15/2020 4:46:32 PM",
            "data atualizacao": "5/15/2020 5:01:14 PM"
        },
        {
            "id": "22635361",
            "id imovel": "64254793",
            "id usuario": "311232",
            "tipo comissao": "Captador",
            "venda": "Sim",
            "locacao": "Sim",
            "data cadastro": "5/18/2020 8:34:23 PM",
            "data atualizacao": "6/27/2020 11:17:31 PM"
        },
        {
            "id": "22638503",
            "id imovel": "64257418",
            "id usuario": "311232",
            "tipo comissao": "Captador",
            "venda": "Sim",
            "locacao": "Sim",
            "data cadastro": "5/19/2020 1:00:25 PM",
            "data atualizacao": "6/15/2020 9:48:07 AM"
        },
        {
            "id": "22671028",
            "id imovel": "64286001",
            "id usuario": "311232",
            "tipo comissao": "Captador",
            "venda": "Sim",
            "locacao": "Sim",
            "data cadastro": "5/23/2020 1:09:56 PM",
            "data atualizacao": "8/1/2020 6:52:59 PM"
        },
        {
            "id": "22671465",
            "id imovel": "64286409",
            "id usuario": "311232",
            "tipo comissao": "Captador",
            "venda": "Sim",
            "locacao": "Sim",
            "data cadastro": "5/23/2020 3:15:18 PM",
            "data atualizacao": "6/10/2020 12:24:42 AM"
        },
        {
            "id": "22671703",
            "id imovel": "64286621",
            "id usuario": "311232",
            "tipo comissao": "Captador",
            "venda": "Não",
            "locacao": "Sim",
            "data cadastro": "5/23/2020 4:00:51 PM",
            "data atualizacao": "7/7/2020 4:58:53 PM"
        },
        {
            "id": "22678795",
            "id imovel": "64293015",
            "id usuario": "311232",
            "tipo comissao": "Captador",
            "venda": "Sim",
            "locacao": "Sim",
            "data cadastro": "5/25/2020 3:25:47 PM",
            "data atualizacao": "9/25/2020 8:10:14 AM"
        },
        {
            "id": "22679112",
            "id imovel": "64293313",
            "id usuario": "311232",
            "tipo comissao": "Captador",
            "venda": "Sim",
            "locacao": "Sim",
            "data cadastro": "5/25/2020 3:50:54 PM",
            "data atualizacao": "6/10/2020 12:26:21 AM"
        },
        {
            "id": "22682986",
            "id imovel": "64296921",
            "id usuario": "311232",
            "tipo comissao": "Captador",
            "venda": "Sim",
            "locacao": "Sim",
            "data cadastro": "5/26/2020 1:28:30 AM",
            "data atualizacao": "5/26/2020 12:04:50 PM"
        },
        {
            "id": "22696902",
            "id imovel": "64309078",
            "id usuario": "311232",
            "tipo comissao": "Captador",
            "venda": "Sim",
            "locacao": "Sim",
            "data cadastro": "5/27/2020 12:37:56 PM",
            "data atualizacao": "5/27/2020 12:37:56 PM"
        },
        {
            "id": "22697297",
            "id imovel": "64309412",
            "id usuario": "311232",
            "tipo comissao": "Captador",
            "venda": "Sim",
            "locacao": "Sim",
            "data cadastro": "5/27/2020 1:23:17 PM",
            "data atualizacao": "5/27/2020 1:23:17 PM"
        },
        {
            "id": "22697545",
            "id imovel": "64309620",
            "id usuario": "311232",
            "tipo comissao": "Captador",
            "venda": "Sim",
            "locacao": "Sim",
            "data cadastro": "5/27/2020 1:49:14 PM",
            "data atualizacao": "6/10/2020 12:25:49 AM"
        },
        {
            "id": "22699397",
            "id imovel": "64311191",
            "id usuario": "311232",
            "tipo comissao": "Captador",
            "venda": "Sim",
            "locacao": "Sim",
            "data cadastro": "5/27/2020 4:01:35 PM",
            "data atualizacao": "5/27/2020 5:39:24 PM"
        },
        {
            "id": "22707920",
            "id imovel": "64318908",
            "id usuario": "311232",
            "tipo comissao": "Captador",
            "venda": "Sim",
            "locacao": "Sim",
            "data cadastro": "5/28/2020 12:19:52 PM",
            "data atualizacao": "7/7/2020 5:31:24 PM"
        },
        {
            "id": "22734423",
            "id imovel": "64342994",
            "id usuario": "311232",
            "tipo comissao": "Captador",
            "venda": "Sim",
            "locacao": "Sim",
            "data cadastro": "5/30/2020 5:03:39 PM",
            "data atualizacao": "5/31/2020 2:09:09 AM"
        },
        {
            "id": "22771626",
            "id imovel": "64375650",
            "id usuario": "311232",
            "tipo comissao": "Captador",
            "venda": "Sim",
            "locacao": "Sim",
            "data cadastro": "6/3/2020 5:33:22 PM",
            "data atualizacao": "6/3/2020 5:33:22 PM"
        },
        {
            "id": "22803184",
            "id imovel": "64403783",
            "id usuario": "311232",
            "tipo comissao": "Captador",
            "venda": "Sim",
            "locacao": "Sim",
            "data cadastro": "6/5/2020 9:57:14 PM",
            "data atualizacao": "11/9/2020 11:48:35 AM"
        },
        {
            "id": "22806990",
            "id imovel": "64407005",
            "id usuario": "311232",
            "tipo comissao": "Captador",
            "venda": "Sim",
            "locacao": "Sim",
            "data cadastro": "6/7/2020 2:49:06 PM",
            "data atualizacao": "8/7/2020 3:07:49 PM"
        },
        {
            "id": "22807066",
            "id imovel": "64407061",
            "id usuario": "311232",
            "tipo comissao": "Captador",
            "venda": "Sim",
            "locacao": "Sim",
            "data cadastro": "6/7/2020 3:35:44 PM",
            "data atualizacao": "9/21/2020 11:55:12 AM"
        },
        {
            "id": "22807105",
            "id imovel": "64407088",
            "id usuario": "311232",
            "tipo comissao": "Captador",
            "venda": "Sim",
            "locacao": "Sim",
            "data cadastro": "6/7/2020 3:52:41 PM",
            "data atualizacao": "6/7/2020 3:52:41 PM"
        },
        {
            "id": "22839493",
            "id imovel": "64434420",
            "id usuario": "311232",
            "tipo comissao": "Captador",
            "venda": "Sim",
            "locacao": "Sim",
            "data cadastro": "6/11/2020 4:43:46 PM",
            "data atualizacao": "6/11/2020 4:43:46 PM"
        },
        {
            "id": "22874007",
            "id imovel": "64464453",
            "id usuario": "311232",
            "tipo comissao": "Captador",
            "venda": "Sim",
            "locacao": "Sim",
            "data cadastro": "6/16/2020 5:24:53 PM",
            "data atualizacao": "6/27/2020 11:18:06 PM"
        },
        {
            "id": "22953683",
            "id imovel": "64530951",
            "id usuario": "311232",
            "tipo comissao": "Captador",
            "venda": "Sim",
            "locacao": "Sim",
            "data cadastro": "6/22/2020 12:15:47 PM",
            "data atualizacao": "6/23/2020 2:21:56 PM"
        },
        {
            "id": "22959414",
            "id imovel": "64535222",
            "id usuario": "311232",
            "tipo comissao": "Captador",
            "venda": "Sim",
            "locacao": "Sim",
            "data cadastro": "6/22/2020 4:00:43 PM",
            "data atualizacao": "6/22/2020 4:00:43 PM"
        },
        {
            "id": "22959958",
            "id imovel": "64535624",
            "id usuario": "311232",
            "tipo comissao": "Captador",
            "venda": "Sim",
            "locacao": "Sim",
            "data cadastro": "6/22/2020 4:25:00 PM",
            "data atualizacao": "6/22/2020 4:25:00 PM"
        },
        {
            "id": "22971897",
            "id imovel": "64543797",
            "id usuario": "311232",
            "tipo comissao": "Captador",
            "venda": "Sim",
            "locacao": "Sim",
            "data cadastro": "6/23/2020 3:10:07 PM",
            "data atualizacao": "6/23/2020 3:10:07 PM"
        },
        {
            "id": "22973116",
            "id imovel": "64544819",
            "id usuario": "311232",
            "tipo comissao": "Captador",
            "venda": "Sim",
            "locacao": "Sim",
            "data cadastro": "6/23/2020 4:10:38 PM",
            "data atualizacao": "6/23/2020 4:10:38 PM"
        },
        {
            "id": "22973517",
            "id imovel": "64545152",
            "id usuario": "311232",
            "tipo comissao": "Captador",
            "venda": "Sim",
            "locacao": "Sim",
            "data cadastro": "6/23/2020 4:31:05 PM",
            "data atualizacao": "6/23/2020 4:31:05 PM"
        },
        {
            "id": "22974320",
            "id imovel": "64545842",
            "id usuario": "311232",
            "tipo comissao": "Captador",
            "venda": "Sim",
            "locacao": "Sim",
            "data cadastro": "6/23/2020 5:14:09 PM",
            "data atualizacao": "6/23/2020 5:14:09 PM"
        },
        {
            "id": "22996909",
            "id imovel": "64563642",
            "id usuario": "311232",
            "tipo comissao": "Captador",
            "venda": "Sim",
            "locacao": "Sim",
            "data cadastro": "6/25/2020 2:23:32 PM",
            "data atualizacao": "6/25/2020 3:02:30 PM"
        },
        {
            "id": "22998569",
            "id imovel": "64565064",
            "id usuario": "311232",
            "tipo comissao": "Captador",
            "venda": "Sim",
            "locacao": "Sim",
            "data cadastro": "6/25/2020 3:31:59 PM",
            "data atualizacao": "9/25/2020 8:04:49 AM"
        },
        {
            "id": "22999519",
            "id imovel": "64565951",
            "id usuario": "311232",
            "tipo comissao": "Captador",
            "venda": "Sim",
            "locacao": "Sim",
            "data cadastro": "6/25/2020 3:47:59 PM",
            "data atualizacao": "6/25/2020 3:47:59 PM"
        },
        {
            "id": "23010887",
            "id imovel": "64575533",
            "id usuario": "311232",
            "tipo comissao": "Captador",
            "venda": "Sim",
            "locacao": "Sim",
            "data cadastro": "6/26/2020 4:54:00 PM",
            "data atualizacao": "6/26/2020 4:54:00 PM"
        },
        {
            "id": "23011003",
            "id imovel": "64575627",
            "id usuario": "311232",
            "tipo comissao": "Captador",
            "venda": "Sim",
            "locacao": "Sim",
            "data cadastro": "6/26/2020 5:00:51 PM",
            "data atualizacao": "11/18/2020 10:30:37 AM"
        },
        {
            "id": "23014999",
            "id imovel": "64579070",
            "id usuario": "311232",
            "tipo comissao": "Captador",
            "venda": "Sim",
            "locacao": "Não",
            "data cadastro": "6/27/2020 2:22:07 PM",
            "data atualizacao": "11/16/2020 11:05:30 AM"
        },
        {
            "id": "23015158",
            "id imovel": "64579216",
            "id usuario": "311232",
            "tipo comissao": "Captador",
            "venda": "Sim",
            "locacao": "Sim",
            "data cadastro": "6/27/2020 3:08:40 PM",
            "data atualizacao": "6/27/2020 3:08:40 PM"
        },
        {
            "id": "23015237",
            "id imovel": "64579284",
            "id usuario": "311232",
            "tipo comissao": "Captador",
            "venda": "Sim",
            "locacao": "Sim",
            "data cadastro": "6/27/2020 3:40:07 PM",
            "data atualizacao": "6/27/2020 3:40:07 PM"
        },
        {
            "id": "23015315",
            "id imovel": "64579360",
            "id usuario": "311232",
            "tipo comissao": "Captador",
            "venda": "Sim",
            "locacao": "Sim",
            "data cadastro": "6/27/2020 4:04:42 PM",
            "data atualizacao": "6/27/2020 4:04:42 PM"
        },
        {
            "id": "23015388",
            "id imovel": "64579420",
            "id usuario": "311232",
            "tipo comissao": "Captador",
            "venda": "Sim",
            "locacao": "Sim",
            "data cadastro": "6/27/2020 4:28:23 PM",
            "data atualizacao": "6/27/2020 4:28:23 PM"
        },
        {
            "id": "23015439",
            "id imovel": "64579470",
            "id usuario": "311232",
            "tipo comissao": "Captador",
            "venda": "Sim",
            "locacao": "Sim",
            "data cadastro": "6/27/2020 4:48:33 PM",
            "data atualizacao": "6/27/2020 4:48:33 PM"
        },
        {
            "id": "23015978",
            "id imovel": "64580005",
            "id usuario": "311232",
            "tipo comissao": "Captador",
            "venda": "Sim",
            "locacao": "Sim",
            "data cadastro": "6/28/2020 12:44:24 AM",
            "data atualizacao": "7/22/2020 7:05:17 PM"
        },
        {
            "id": "23015979",
            "id imovel": "64580006",
            "id usuario": "311232",
            "tipo comissao": "Captador",
            "venda": "Sim",
            "locacao": "Sim",
            "data cadastro": "6/28/2020 12:55:58 AM",
            "data atualizacao": "6/28/2020 12:55:58 AM"
        },
        {
            "id": "23018629",
            "id imovel": "64582566",
            "id usuario": "311232",
            "tipo comissao": "Captador",
            "venda": "Sim",
            "locacao": "Sim",
            "data cadastro": "6/29/2020 10:50:53 AM",
            "data atualizacao": "7/7/2020 5:15:24 PM"
        },
        {
            "id": "23019278",
            "id imovel": "64583101",
            "id usuario": "311232",
            "tipo comissao": "Captador",
            "venda": "Sim",
            "locacao": "Sim",
            "data cadastro": "6/29/2020 11:43:17 AM",
            "data atualizacao": "6/29/2020 11:43:17 AM"
        },
        {
            "id": "23019694",
            "id imovel": "64583456",
            "id usuario": "311232",
            "tipo comissao": "Captador",
            "venda": "Sim",
            "locacao": "Sim",
            "data cadastro": "6/29/2020 12:12:54 PM",
            "data atualizacao": "6/29/2020 12:12:54 PM"
        },
        {
            "id": "23021210",
            "id imovel": "64584741",
            "id usuario": "311232",
            "tipo comissao": "Captador",
            "venda": "Sim",
            "locacao": "Sim",
            "data cadastro": "6/29/2020 2:20:53 PM",
            "data atualizacao": "6/29/2020 2:20:53 PM"
        },
        {
            "id": "23027159",
            "id imovel": "64589239",
            "id usuario": "311232",
            "tipo comissao": "Captador",
            "venda": "Sim",
            "locacao": "Sim",
            "data cadastro": "6/29/2020 11:32:08 PM",
            "data atualizacao": "9/21/2020 11:45:19 AM"
        },
        {
            "id": "23030612",
            "id imovel": "64592232",
            "id usuario": "311232",
            "tipo comissao": "Captador",
            "venda": "Sim",
            "locacao": "Sim",
            "data cadastro": "6/30/2020 12:56:05 PM",
            "data atualizacao": "7/6/2020 9:42:17 AM"
        },
        {
            "id": "23042403",
            "id imovel": "64602182",
            "id usuario": "311232",
            "tipo comissao": "Captador",
            "venda": "Sim",
            "locacao": "Sim",
            "data cadastro": "7/1/2020 1:51:30 PM",
            "data atualizacao": "7/1/2020 1:51:30 PM"
        },
        {
            "id": "23044925",
            "id imovel": "64604230",
            "id usuario": "311232",
            "tipo comissao": "Captador",
            "venda": "Sim",
            "locacao": "Sim",
            "data cadastro": "7/1/2020 4:13:01 PM",
            "data atualizacao": "7/1/2020 4:13:01 PM"
        },
        {
            "id": "23058145",
            "id imovel": "64613694",
            "id usuario": "311232",
            "tipo comissao": "Captador",
            "venda": "Sim",
            "locacao": "Sim",
            "data cadastro": "7/2/2020 4:34:49 PM",
            "data atualizacao": "7/2/2020 4:34:49 PM"
        },
        {
            "id": "23077718",
            "id imovel": "64628709",
            "id usuario": "311232",
            "tipo comissao": "Captador",
            "venda": "Sim",
            "locacao": "Sim",
            "data cadastro": "7/5/2020 1:46:23 AM",
            "data atualizacao": "7/7/2020 5:08:38 PM"
        },
        {
            "id": "23105823",
            "id imovel": "64650720",
            "id usuario": "311232",
            "tipo comissao": "Captador",
            "venda": "Sim",
            "locacao": "Sim",
            "data cadastro": "7/7/2020 7:14:35 PM",
            "data atualizacao": "7/7/2020 7:14:35 PM"
        },
        {
            "id": "23109346",
            "id imovel": "64652815",
            "id usuario": "311232",
            "tipo comissao": "Captador",
            "venda": "Sim",
            "locacao": "Sim",
            "data cadastro": "7/7/2020 11:38:54 PM",
            "data atualizacao": "7/7/2020 11:38:54 PM"
        },
        {
            "id": "23109898",
            "id imovel": "64653259",
            "id usuario": "311232",
            "tipo comissao": "Captador",
            "venda": "Sim",
            "locacao": "Sim",
            "data cadastro": "7/8/2020 1:10:35 AM",
            "data atualizacao": "7/8/2020 1:10:35 AM"
        },
        {
            "id": "23109918",
            "id imovel": "64653276",
            "id usuario": "311232",
            "tipo comissao": "Captador",
            "venda": "Sim",
            "locacao": "Sim",
            "data cadastro": "7/8/2020 1:56:18 AM",
            "data atualizacao": "9/2/2020 4:59:00 PM"
        },
        {
            "id": "23112659",
            "id imovel": "64655510",
            "id usuario": "311232",
            "tipo comissao": "Captador",
            "venda": "Sim",
            "locacao": "Sim",
            "data cadastro": "7/8/2020 11:42:34 AM",
            "data atualizacao": "7/8/2020 11:42:34 AM"
        },
        {
            "id": "23149563",
            "id imovel": "64686105",
            "id usuario": "311232",
            "tipo comissao": "Captador",
            "venda": "Sim",
            "locacao": "Sim",
            "data cadastro": "7/11/2020 8:07:48 AM",
            "data atualizacao": "7/11/2020 8:07:48 AM"
        },
        {
            "id": "23151946",
            "id imovel": "64688105",
            "id usuario": "311232",
            "tipo comissao": "Captador",
            "venda": "Sim",
            "locacao": "Sim",
            "data cadastro": "7/11/2020 6:27:34 PM",
            "data atualizacao": "7/11/2020 6:27:34 PM"
        },
        {
            "id": "23152391",
            "id imovel": "64688460",
            "id usuario": "311232",
            "tipo comissao": "Captador",
            "venda": "Sim",
            "locacao": "Sim",
            "data cadastro": "7/12/2020 12:17:26 AM",
            "data atualizacao": "7/12/2020 12:17:26 AM"
        },
        {
            "id": "23241035",
            "id imovel": "64766176",
            "id usuario": "311232",
            "tipo comissao": "Captador",
            "venda": "Sim",
            "locacao": "Sim",
            "data cadastro": "7/20/2020 11:11:46 AM",
            "data atualizacao": "7/20/2020 12:16:26 PM"
        },
        {
            "id": "23242180",
            "id imovel": "64767187",
            "id usuario": "311232",
            "tipo comissao": "Captador",
            "venda": "Sim",
            "locacao": "Sim",
            "data cadastro": "7/20/2020 11:59:21 AM",
            "data atualizacao": "7/20/2020 11:59:21 AM"
        },
        {
            "id": "23243018",
            "id imovel": "64767888",
            "id usuario": "311232",
            "tipo comissao": "Captador",
            "venda": "Sim",
            "locacao": "Sim",
            "data cadastro": "7/20/2020 12:59:50 PM",
            "data atualizacao": "8/1/2020 6:55:39 PM"
        },
        {
            "id": "23248098",
            "id imovel": "64772372",
            "id usuario": "311232",
            "tipo comissao": "Captador",
            "venda": "Sim",
            "locacao": "Sim",
            "data cadastro": "7/20/2020 4:55:20 PM",
            "data atualizacao": "7/20/2020 4:55:20 PM"
        },
        {
            "id": "23248893",
            "id imovel": "64773032",
            "id usuario": "311232",
            "tipo comissao": "Captador",
            "venda": "Sim",
            "locacao": "Sim",
            "data cadastro": "7/20/2020 5:31:42 PM",
            "data atualizacao": "8/5/2020 10:44:42 AM"
        },
        {
            "id": "23291193",
            "id imovel": "64808672",
            "id usuario": "311232",
            "tipo comissao": "Captador",
            "venda": "Sim",
            "locacao": "Sim",
            "data cadastro": "7/23/2020 12:52:55 PM",
            "data atualizacao": "7/23/2020 12:52:55 PM"
        },
        {
            "id": "23472944",
            "id imovel": "64974638",
            "id usuario": "311232",
            "tipo comissao": "Captador",
            "venda": "Sim",
            "locacao": "Sim",
            "data cadastro": "8/2/2020 11:23:33 AM",
            "data atualizacao": "8/2/2020 11:23:33 AM"
        },
        {
            "id": "23507799",
            "id imovel": "65004438",
            "id usuario": "311232",
            "tipo comissao": "Captador",
            "venda": "Sim",
            "locacao": "Sim",
            "data cadastro": "8/5/2020 2:40:16 PM",
            "data atualizacao": "8/5/2020 2:40:16 PM"
        },
        {
            "id": "23537563",
            "id imovel": "65030103",
            "id usuario": "311232",
            "tipo comissao": "Captador",
            "venda": "Sim",
            "locacao": "Sim",
            "data cadastro": "8/7/2020 10:38:44 PM",
            "data atualizacao": "11/16/2020 10:53:15 AM"
        },
        {
            "id": "23541459",
            "id imovel": "65033515",
            "id usuario": "311232",
            "tipo comissao": "Captador",
            "venda": "Sim",
            "locacao": "Sim",
            "data cadastro": "8/8/2020 6:13:09 PM",
            "data atualizacao": "8/8/2020 6:13:09 PM"
        },
        {
            "id": "23541529",
            "id imovel": "65033574",
            "id usuario": "311232",
            "tipo comissao": "Captador",
            "venda": "Sim",
            "locacao": "Sim",
            "data cadastro": "8/8/2020 6:52:31 PM",
            "data atualizacao": "8/8/2020 6:52:31 PM"
        },
        {
            "id": "23567720",
            "id imovel": "65056370",
            "id usuario": "311232",
            "tipo comissao": "Captador",
            "venda": "Sim",
            "locacao": "Sim",
            "data cadastro": "8/11/2020 5:40:17 PM",
            "data atualizacao": "8/11/2020 5:40:17 PM"
        },
        {
            "id": "23569396",
            "id imovel": "65057824",
            "id usuario": "311232",
            "tipo comissao": "Captador",
            "venda": "Sim",
            "locacao": "Sim",
            "data cadastro": "8/11/2020 8:49:06 PM",
            "data atualizacao": "9/25/2020 7:58:40 AM"
        },
        {
            "id": "23569927",
            "id imovel": "65058322",
            "id usuario": "311232",
            "tipo comissao": "Captador",
            "venda": "Sim",
            "locacao": "Sim",
            "data cadastro": "8/11/2020 9:39:47 PM",
            "data atualizacao": "8/11/2020 9:39:47 PM"
        },
        {
            "id": "23574867",
            "id imovel": "65062511",
            "id usuario": "311232",
            "tipo comissao": "Captador",
            "venda": "Sim",
            "locacao": "Sim",
            "data cadastro": "8/12/2020 11:32:43 AM",
            "data atualizacao": "8/12/2020 11:32:43 AM"
        },
        {
            "id": "23575743",
            "id imovel": "65063244",
            "id usuario": "311232",
            "tipo comissao": "Captador",
            "venda": "Sim",
            "locacao": "Sim",
            "data cadastro": "8/12/2020 12:03:49 PM",
            "data atualizacao": "8/12/2020 12:03:49 PM"
        },
        {
            "id": "23584200",
            "id imovel": "65070458",
            "id usuario": "311232",
            "tipo comissao": "Captador",
            "venda": "Sim",
            "locacao": "Sim",
            "data cadastro": "8/12/2020 5:12:20 PM",
            "data atualizacao": "11/9/2020 11:12:19 AM"
        },
        {
            "id": "23600409",
            "id imovel": "65084048",
            "id usuario": "311232",
            "tipo comissao": "Captador",
            "venda": "Sim",
            "locacao": "Sim",
            "data cadastro": "8/13/2020 5:30:32 PM",
            "data atualizacao": "8/13/2020 5:30:32 PM"
        },
        {
            "id": "23607024",
            "id imovel": "65089826",
            "id usuario": "311232",
            "tipo comissao": "Captador",
            "venda": "Sim",
            "locacao": "Sim",
            "data cadastro": "8/14/2020 11:42:38 AM",
            "data atualizacao": "9/21/2020 12:01:14 PM"
        },
        {
            "id": "23607850",
            "id imovel": "65090524",
            "id usuario": "311232",
            "tipo comissao": "Captador",
            "venda": "Sim",
            "locacao": "Sim",
            "data cadastro": "8/14/2020 12:15:27 PM",
            "data atualizacao": "8/14/2020 12:15:27 PM"
        },
        {
            "id": "23610255",
            "id imovel": "65092498",
            "id usuario": "311232",
            "tipo comissao": "Captador",
            "venda": "Sim",
            "locacao": "Sim",
            "data cadastro": "8/14/2020 2:57:54 PM",
            "data atualizacao": "8/14/2020 2:57:54 PM"
        },
        {
            "id": "23611229",
            "id imovel": "65093307",
            "id usuario": "311232",
            "tipo comissao": "Captador",
            "venda": "Sim",
            "locacao": "Sim",
            "data cadastro": "8/14/2020 3:45:28 PM",
            "data atualizacao": "8/14/2020 3:45:28 PM"
        },
        {
            "id": "23613592",
            "id imovel": "65095272",
            "id usuario": "311232",
            "tipo comissao": "Captador",
            "venda": "Sim",
            "locacao": "Sim",
            "data cadastro": "8/14/2020 5:52:27 PM",
            "data atualizacao": "8/14/2020 5:52:27 PM"
        },
        {
            "id": "23637469",
            "id imovel": "65115785",
            "id usuario": "311232",
            "tipo comissao": "Captador",
            "venda": "Sim",
            "locacao": "Sim",
            "data cadastro": "8/18/2020 2:33:57 PM",
            "data atualizacao": "8/18/2020 2:33:57 PM"
        },
        {
            "id": "23646993",
            "id imovel": "65124477",
            "id usuario": "311232",
            "tipo comissao": "Captador",
            "venda": "Sim",
            "locacao": "Sim",
            "data cadastro": "8/18/2020 11:09:56 PM",
            "data atualizacao": "8/18/2020 11:09:56 PM"
        },
        {
            "id": "23660423",
            "id imovel": "65136261",
            "id usuario": "311232",
            "tipo comissao": "Captador",
            "venda": "Sim",
            "locacao": "Sim",
            "data cadastro": "8/19/2020 7:46:58 PM",
            "data atualizacao": "11/10/2020 9:27:18 AM"
        },
        {
            "id": "23682474",
            "id imovel": "65154882",
            "id usuario": "311232",
            "tipo comissao": "Captador",
            "venda": "Sim",
            "locacao": "Sim",
            "data cadastro": "8/21/2020 8:36:01 PM",
            "data atualizacao": "8/21/2020 8:36:01 PM"
        },
        {
            "id": "23682588",
            "id imovel": "65154992",
            "id usuario": "311232",
            "tipo comissao": "Captador",
            "venda": "Sim",
            "locacao": "Sim",
            "data cadastro": "8/21/2020 9:28:55 PM",
            "data atualizacao": "8/21/2020 9:28:55 PM"
        },
        {
            "id": "23753331",
            "id imovel": "65214543",
            "id usuario": "311232",
            "tipo comissao": "Captador",
            "venda": "Sim",
            "locacao": "Sim",
            "data cadastro": "8/31/2020 1:42:20 PM",
            "data atualizacao": "8/31/2020 1:42:20 PM"
        },
        {
            "id": "23759114",
            "id imovel": "65219830",
            "id usuario": "311232",
            "tipo comissao": "Captador",
            "venda": "Sim",
            "locacao": "Sim",
            "data cadastro": "8/31/2020 4:17:39 PM",
            "data atualizacao": "8/31/2020 4:17:39 PM"
        },
        {
            "id": "23801671",
            "id imovel": "65256001",
            "id usuario": "311232",
            "tipo comissao": "Captador",
            "venda": "Sim",
            "locacao": "Sim",
            "data cadastro": "9/4/2020 1:57:30 PM",
            "data atualizacao": "9/4/2020 1:57:30 PM"
        },
        {
            "id": "23802299",
            "id imovel": "65256513",
            "id usuario": "311232",
            "tipo comissao": "Captador",
            "venda": "Sim",
            "locacao": "Sim",
            "data cadastro": "9/4/2020 2:35:51 PM",
            "data atualizacao": "9/4/2020 2:35:51 PM"
        },
        {
            "id": "23803125",
            "id imovel": "65257250",
            "id usuario": "311232",
            "tipo comissao": "Captador",
            "venda": "Sim",
            "locacao": "Sim",
            "data cadastro": "9/4/2020 3:13:56 PM",
            "data atualizacao": "11/25/2020 8:47:45 AM"
        },
        {
            "id": "23855547",
            "id imovel": "65298632",
            "id usuario": "311232",
            "tipo comissao": "Captador",
            "venda": "Sim",
            "locacao": "Sim",
            "data cadastro": "9/10/2020 10:38:30 AM",
            "data atualizacao": "9/10/2020 10:38:30 AM"
        },
        {
            "id": "23946224",
            "id imovel": "65375189",
            "id usuario": "311232",
            "tipo comissao": "Captador",
            "venda": "Sim",
            "locacao": "Sim",
            "data cadastro": "9/21/2020 3:02:32 PM",
            "data atualizacao": "9/21/2020 3:02:32 PM"
        },
        {
            "id": "23947854",
            "id imovel": "65376577",
            "id usuario": "311232",
            "tipo comissao": "Captador",
            "venda": "Sim",
            "locacao": "Sim",
            "data cadastro": "9/21/2020 4:06:46 PM",
            "data atualizacao": "9/21/2020 4:06:46 PM"
        },
        {
            "id": "24036930",
            "id imovel": "65453589",
            "id usuario": "311232",
            "tipo comissao": "Captador",
            "venda": "Sim",
            "locacao": "Sim",
            "data cadastro": "9/30/2020 9:51:13 AM",
            "data atualizacao": "9/30/2020 9:51:13 AM"
        },
        {
            "id": "24459560",
            "id imovel": "65800020",
            "id usuario": "311232",
            "tipo comissao": "Captador",
            "venda": "Sim",
            "locacao": "Não",
            "data cadastro": "11/5/2020 2:28:11 PM",
            "data atualizacao": "11/7/2020 11:33:20 AM"
        },
        {
            "id": "24469067",
            "id imovel": "65808051",
            "id usuario": "311232",
            "tipo comissao": "Captador",
            "venda": "Sim",
            "locacao": "Não",
            "data cadastro": "11/6/2020 11:39:23 AM",
            "data atualizacao": "11/6/2020 12:44:58 PM"
        },
        {
            "id": "24477055",
            "id imovel": "65814893",
            "id usuario": "311232",
            "tipo comissao": "Captador",
            "venda": "Sim",
            "locacao": "Não",
            "data cadastro": "11/7/2020 10:10:57 AM",
            "data atualizacao": "11/7/2020 12:00:34 PM"
        },
        {
            "id": "24477977",
            "id imovel": "65815673",
            "id usuario": "311232",
            "tipo comissao": "Captador",
            "venda": "Sim",
            "locacao": "Não",
            "data cadastro": "11/7/2020 11:59:47 AM",
            "data atualizacao": "11/7/2020 12:55:44 PM"
        },
        {
            "id": "24507817",
            "id imovel": "65841618",
            "id usuario": "311232",
            "tipo comissao": "Captador",
            "venda": "Sim",
            "locacao": "Não",
            "data cadastro": "11/11/2020 10:19:11 AM",
            "data atualizacao": "11/11/2020 10:19:11 AM"
        },
        {
            "id": "24532831",
            "id imovel": "65863125",
            "id usuario": "311232",
            "tipo comissao": "Captador",
            "venda": "Sim",
            "locacao": "Não",
            "data cadastro": "11/13/2020 10:28:55 AM",
            "data atualizacao": "11/13/2020 10:40:19 AM"
        },
        {
            "id": "24534986",
            "id imovel": "65864795",
            "id usuario": "311232",
            "tipo comissao": "Captador",
            "venda": "Sim",
            "locacao": "Não",
            "data cadastro": "11/13/2020 12:20:08 PM",
            "data atualizacao": "11/14/2020 9:18:15 AM"
        },
        {
            "id": "24539456",
            "id imovel": "65868657",
            "id usuario": "311232",
            "tipo comissao": "Captador",
            "venda": "Sim",
            "locacao": "Não",
            "data cadastro": "11/13/2020 3:47:23 PM",
            "data atualizacao": "11/13/2020 3:47:23 PM"
        },
        {
            "id": "24543555",
            "id imovel": "65872146",
            "id usuario": "311232",
            "tipo comissao": "Captador",
            "venda": "Sim",
            "locacao": "Não",
            "data cadastro": "11/14/2020 9:53:44 AM",
            "data atualizacao": "11/14/2020 9:57:54 AM"
        },
        {
            "id": "24544980",
            "id imovel": "65873299",
            "id usuario": "311232",
            "tipo comissao": "Captador",
            "venda": "Não",
            "locacao": "Sim",
            "data cadastro": "11/14/2020 12:31:56 PM",
            "data atualizacao": "11/14/2020 1:16:07 PM"
        },
        {
            "id": "24552746",
            "id imovel": "65879782",
            "id usuario": "311232",
            "tipo comissao": "Captador",
            "venda": "Sim",
            "locacao": "Não",
            "data cadastro": "11/16/2020 2:51:00 PM",
            "data atualizacao": "11/16/2020 4:02:20 PM"
        },
        {
            "id": "24561130",
            "id imovel": "65886950",
            "id usuario": "311232",
            "tipo comissao": "Captador",
            "venda": "Sim",
            "locacao": "Não",
            "data cadastro": "11/17/2020 11:46:07 AM",
            "data atualizacao": "11/17/2020 11:46:07 AM"
        },
        {
            "id": "24565894",
            "id imovel": "65891018",
            "id usuario": "311232",
            "tipo comissao": "Captador",
            "venda": "Sim",
            "locacao": "Não",
            "data cadastro": "11/17/2020 4:15:21 PM",
            "data atualizacao": "11/17/2020 4:26:24 PM"
        },
        {
            "id": "24572586",
            "id imovel": "65896737",
            "id usuario": "311232",
            "tipo comissao": "Captador",
            "venda": "Sim",
            "locacao": "Não",
            "data cadastro": "11/18/2020 12:07:21 PM",
            "data atualizacao": "11/18/2020 2:58:13 PM"
        },
        {
            "id": "24575063",
            "id imovel": "65898786",
            "id usuario": "311232",
            "tipo comissao": "Captador",
            "venda": "Sim",
            "locacao": "Não",
            "data cadastro": "11/18/2020 2:52:58 PM",
            "data atualizacao": "11/18/2020 2:52:58 PM"
        },
        {
            "id": "24575994",
            "id imovel": "65899571",
            "id usuario": "311232",
            "tipo comissao": "Captador",
            "venda": "Sim",
            "locacao": "Não",
            "data cadastro": "11/18/2020 3:31:35 PM",
            "data atualizacao": "11/18/2020 4:19:53 PM"
        },
        {
            "id": "24643893",
            "id imovel": "65956685",
            "id usuario": "311232",
            "tipo comissao": "Captador",
            "venda": "Sim",
            "locacao": "Não",
            "data cadastro": "11/26/2020 3:15:44 PM",
            "data atualizacao": "11/27/2020 9:10:24 AM"
        }
    ]
}