{
    "ImoveisFechamentos": [
        {
            "id fechamento": "8130853",
            "id imovel": "63162656",
            "id clientes": "",
            "id usuario cadastro": "311232",
            "data cadastro": "12/13/2019 9:20:25 PM",
            "data fechamento": "",
            "valor fechamento": "0.00",
            "motivo": "Comercializado por terceiros",
            "venda": "Não",
            "em parceria": "Não",
            "financiado": "Não",
            "valor financiado": "0.00",
            "usou fgts": "Não",
            "descricao": "",
            "valor comissao": "0.0000",
            "porcentagem comissao": "0.0000",
            "contrato assinado": "Sim",
            "tipo locacao": "",
            "prazo meses": "0",
            "banco": ""
        }
    ]
}